#ActionsTag[0],Action[1],ExtraParameters[2],BalanceTag[3],BalanceType[4],Direction[5],Category[6],DestinationTag[7],RatingSubject[8],SharedGroup[9],ExpiryTime[10],TimingTags[11],Units[12],BalanceWeight[13],Weight[14]
a.one_shot_100,*topup,,,*monetary,*out,,*any,,,*unlimited,,100.0000,10.00,10.00
a.topup_reset_10,*topup_reset,,,*monetary,*out,,*any,,,*unlimited,,10.0000,10.00,10.00
a.disable_account,*disable_account,,,*monetary,*out,,*any,,,0,,0.0000,10.00,10.00
a.enable_account,*enable_account,,,*monetary,*out,,*any,,,0,,0.0000,10.00,10.00
a.cdrlog,*cdrlog,,,,*out,,,,,,,0.0000,0.00,10.00
