#Tag,Prefix
dst.email.none,email-
dst.landline.au,612
dst.landline.au,613
dst.landline.au,618
dst.landline.au,614
dst.landline.au,617
dst.landline.au,61
dst.landline.au,6189164
dst.landline.au,6189162
dst.inbound.au,61
dst.tollfreeinbound.au,611800
dst.tollfreeinbound.au,611300
dst.tollfreeinbound.au,6113
dst.tollfreeoutbound.au,611800
dst.tollfreeoutbound.au,611300
dst.tollfreeoutbound.au,6113
dst.fixed.au,fixed
dst.landline.al,355
dst.inbound.al,355
dst.fixed.al,fixed
dst.landline.dz,213
dst.inbound.dz,213
dst.fixed.dz,fixed
dst.fixed.ad,fixed
dst.landline.ao,244
dst.fixed.ao,fixed
dst.inbound.ao,244
dst.fixed.ai,fixed
dst.landline.ai,1264
dst.inbound.ai,1
dst.fixed.ag,fixed
dst.landline.ag,1268
dst.inbound.ag,1
dst.fixed.ag,fixed
dst.landline.ar,54
dst.inbound.ar,54
dst.fixed.ar,fixed
dst.landline.am,374
dst.inbound.am,374
dst.fixed.am,fixed
dst.landline.aw,297
dst.inbound.aw,297
dst.fixed.aw,fixed
dst.landline.af,93
dst.inbound.af,93
dst.fixed.af,fixed
dst.landline.at,43
dst.inbound.at,43
dst.fixed.at,fixed
dst.landline.az,994
dst.inbound.az,994
dst.fixed.az,fixed
dst.landline.bs,1242
dst.fixed.bs,fixed
dst.inbound.bs,1
dst.fixed.bh,fixed
dst.landline.bh,973
dst.inbound.bh,973
dst.fixed.bd,fixed
dst.landline.bd,880
dst.inbound.bd,880
dst.fixed.bd,fixed
dst.landline.bb,1246
dst.inbound.bb,1
dst.fixed.bb,fixed
dst.landline.by,375
dst.inbound.by,375
dst.fixed.by,fixed
dst.landline.be,32
dst.inbound.be,32
dst.fixed.be,fixed
dst.landline.bz,501
dst.inbound.bz,501
dst.fixed.bz,fixed
dst.landline.bj,229
dst.inbound.bj,229
dst.fixed.bj,fixed
dst.landline.bm,1441
dst.inbound.bm,1
dst.fixed.bm,fixed
dst.landline.bt,975
dst.fixed.bt,fixed
dst.inbound.bt,975
dst.fixed.bo,fixed
dst.landline.bo,591
dst.inbound.bo,591
dst.fixed.ba,fixed
dst.fixed.ba,fixed
dst.landline.bw,267
dst.inbound.bw,267
dst.fixed.bw,fixed
dst.landline.br,55
dst.inbound.br,55
dst.fixed.br,fixed
dst.landline.bn,673
dst.inbound.bn,673
dst.fixed.bn,fixed
dst.landline.bg,359
dst.inbound.bg,359
dst.fixed.bg,fixed
dst.fixed.bf,fixed
dst.landline.bi,257
dst.inbound.bi,257
dst.fixed.bi,fixed
dst.landline.kh,855
dst.fixed.kh,fixed
dst.inbound.kh,855
dst.fixed.cm,fixed
dst.landline.cm,237
dst.inbound.cm,237
dst.fixed.ca,fixed
dst.landline.ca,1902
dst.landline.ca,1506
dst.landline.ca,1709
dst.landline.ca,1416
dst.landline.ca,1236
dst.landline.ca,1778
dst.landline.ca,1604
dst.landline.ca,1204
dst.landline.ca,1867
dst.landline.ca,1514
dst.landline.ca,1613
dst.landline.ca,1647
dst.landline.ca,1705
dst.landline.ca,1807
dst.landline.ca,1819
dst.landline.ca,1867
dst.landline.ca,1867
dst.landline.ca,1867
dst.landline.ca,1902
dst.landline.ca,1905
dst.landline.ca,1244
dst.landline.ca,1587
dst.landline.ca,1780
dst.landline.ca,1819
dst.landline.ca,1519
dst.landline.ca,1226
dst.landline.ca,1905
dst.landline.ca,1289
dst.landline.ca,1514
dst.landline.ca,1438
dst.landline.ca,1613
dst.landline.ca,1343
dst.landline.ca,1581
dst.landline.ca,1418
dst.landline.ca,1306
dst.landline.ca,1705
dst.landline.ca,1249
dst.landline.ca,1600
dst.landline.ca,1450
dst.landline.ca,1579
dst.landline.ca,1807
dst.landline.ca,1647
dst.landline.ca,1250
dst.landline.ca,1780
dst.landline.ca,1902
dst.landline.ca,1418
dst.landline.ca,1450
dst.landline.ca,1519
dst.inbound.ca,1
dst.fixed.ca,fixed
dst.landline.cv,238
dst.inbound.cv,238
dst.fixed.cv,fixed
dst.landline.ky,1345
dst.inbound.ky,1
dst.fixed.ky,fixed
dst.landline.cf,236
dst.inbound.cf,236
dst.fixed.cf,fixed
dst.landline.td,235
dst.inbound.td,235
dst.fixed.td,fixed
dst.landline.cl,56
dst.inbound.cl,56
dst.fixed.cl,fixed
dst.landline.cn,86
dst.inbound.cn,86
dst.fixed.cn,fixed
dst.landline.co,57
dst.fixed.co,fixed
dst.inbound.co,57
dst.fixed.cg,fixed
dst.fixed.cd,fixed
dst.fixed.cd,fixed
dst.fixed.ck,fixed
dst.landline.cr,506
dst.inbound.cr,506
dst.fixed.cr,fixed
dst.fixed.ci,fixed
dst.landline.hr,385
dst.inbound.hr,385
dst.fixed.hr,fixed
dst.landline.cu,53
dst.inbound.cu,53
dst.fixed.cu,fixed
dst.landline.cz,420
dst.fixed.cz,fixed
dst.inbound.cz,420
dst.fixed.dk,fixed
dst.landline.dk,45
dst.inbound.dk,45
dst.fixed.dg,fixed
dst.fixed.dg,fixed
dst.landline.dj,253
dst.inbound.dj,253
dst.fixed.dj,fixed
dst.landline.dm,1767
dst.inbound.dm,1
dst.fixed.dm,fixed
dst.landline.do,1809
dst.inbound.do,1
dst.fixed.do,fixed
dst.landline.ec,593
dst.inbound.ec,593
dst.fixed.ec,fixed
dst.landline.eg,20
dst.inbound.eg,20
dst.fixed.eg,fixed
dst.landline.sv,503
dst.inbound.sv,503
dst.fixed.sv,fixed
dst.landline.gq,240
dst.fixed.gq,fixed
dst.inbound.gq,240
dst.fixed.ee,fixed
dst.landline.ee,372
dst.inbound.ee,372
dst.fixed.fk,fixed
dst.fixed.fk,fixed
dst.fixed.fo,fixed
dst.landline.fj,679
dst.inbound.fj,679
dst.fixed.fj,fixed
dst.landline.fi,358
dst.inbound.fi,358
dst.fixed.fi,fixed
dst.landline.fr,33
dst.inbound.fr,33
dst.fixed.fr,fixed
dst.fixed.gf,fixed
dst.landline.pf,689
dst.inbound.pf,689
dst.fixed.pf,fixed
dst.landline.ga,241
dst.fixed.ga,fixed
dst.inbound.ga,241
dst.fixed.gm,fixed
dst.landline.gm,220
dst.inbound.gm,220
dst.fixed.ge,fixed
dst.landline.ge,995
dst.inbound.ge,995
dst.fixed.ge,fixed
dst.landline.de,49
dst.inbound.de,49
dst.fixed.de,fixed
dst.landline.gh,233
dst.inbound.gh,233
dst.fixed.gh,fixed
dst.landline.gi,350
dst.inbound.gi,350
dst.fixed.gi,fixed
dst.landline.gr,30
dst.inbound.gr,30
dst.fixed.gr,fixed
dst.landline.gl,299
dst.inbound.gl,299
dst.fixed.gl,fixed
dst.landline.gd,1473
dst.inbound.gd,1
dst.fixed.gd,fixed
dst.fixed.gp,fixed
dst.fixed.gu,fixed
dst.landline.gu,1671
dst.inbound.gu,1
dst.fixed.gt,fixed
dst.landline.gt,502
dst.inbound.gt,502
dst.fixed.gt,fixed
dst.fixed.gg,fixed
dst.landline.gn,224
dst.inbound.gn,224
dst.fixed.gn,fixed
dst.landline.gw,245
dst.inbound.gw,245
dst.fixed.gw,fixed
dst.landline.gy,592
dst.inbound.gy,592
dst.fixed.gy,fixed
dst.landline.ht,509
dst.inbound.ht,509
dst.fixed.ht,fixed
dst.landline.hn,504
dst.inbound.hn,504
dst.fixed.hn,fixed
dst.landline.hk,852
dst.fixed.hk,fixed
dst.inbound.hk,852
dst.fixed.hu,fixed
dst.landline.hu,36
dst.inbound.hu,36
dst.fixed.is,fixed
dst.landline.is,354
dst.inbound.is,354
dst.fixed.is,fixed
dst.landline.in,91
dst.inbound.in,91
dst.fixed.in,fixed
dst.landline.id,62
dst.inbound.id,62
dst.fixed.id,fixed
dst.landline.ir,98
dst.inbound.ir,98
dst.fixed.ir,fixed
dst.landline.iq,964
dst.inbound.iq,964
dst.fixed.iq,fixed
dst.landline.ie,353
dst.inbound.ie,353
dst.fixed.ie,fixed
dst.fixed.im,fixed
dst.landline.il,972
dst.fixed.il,fixed
dst.inbound.il,972
dst.fixed.it,fixed
dst.landline.it,39
dst.inbound.it,39
dst.fixed.jm,fixed
dst.landline.jm,1876
dst.inbound.jm,1
dst.fixed.jm,fixed
dst.landline.jp,81
dst.inbound.jp,81
dst.fixed.jp,fixed
dst.fixed.je,fixed
dst.landline.jo,962
dst.inbound.jo,962
dst.fixed.jo,fixed
dst.landline.kz,7
dst.inbound.kz,7
dst.fixed.kz,fixed
dst.landline.ke,254
dst.inbound.ke,254
dst.fixed.ke,fixed
dst.fixed.xk,fixed
dst.landline.kw,965
dst.fixed.kw,fixed
dst.inbound.kw,965
dst.fixed.kg,fixed
dst.landline.kg,996
dst.inbound.kg,996
dst.fixed.la,fixed
dst.landline.la,856
dst.inbound.la,856
dst.fixed.la,fixed
dst.landline.lv,371
dst.inbound.lv,371
dst.fixed.lv,fixed
dst.landline.lb,961
dst.inbound.lb,961
dst.fixed.lb,fixed
dst.landline.ls,266
dst.inbound.ls,266
dst.fixed.ls,fixed
dst.fixed.lr,fixed
dst.landline.ly,218
dst.inbound.ly,218
dst.fixed.ly,fixed
dst.landline.li,423
dst.inbound.li,423
dst.fixed.li,fixed
dst.fixed.lt,fixed
dst.fixed.lu,fixed
dst.landline.lu,352
dst.inbound.lu,352
dst.fixed.mo,fixed
dst.landline.mo,853
dst.inbound.mo,853
dst.fixed.mo,fixed
dst.landline.mk,389
dst.inbound.mk,389
dst.fixed.mk,fixed
dst.landline.mg,261
dst.inbound.mg,261
dst.fixed.mg,fixed
dst.landline.mw,265
dst.inbound.mw,265
dst.fixed.mw,fixed
dst.landline.my,60
dst.inbound.my,60
dst.fixed.my,fixed
dst.landline.mv,960
dst.inbound.mv,960
dst.fixed.mv,fixed
dst.landline.ml,223
dst.inbound.ml,223
dst.fixed.ml,fixed
dst.landline.mt,356
dst.fixed.mt,fixed
dst.inbound.mt,356
dst.fixed.mq,fixed
dst.fixed.mr,fixed
dst.landline.mr,222
dst.inbound.mr,222
dst.fixed.mr,fixed
dst.landline.mu,230
dst.inbound.mu,230
dst.fixed.mu,fixed
dst.landline.yt,262
dst.inbound.yt,262
dst.fixed.yt,fixed
dst.landline.mx,52
dst.inbound.mx,52
dst.fixed.mx,fixed
dst.landline.md,373
dst.inbound.md,373
dst.fixed.md,fixed
dst.landline.mn,976
dst.inbound.mn,976
dst.fixed.mn,fixed
dst.landline.me,382
dst.inbound.me,382
dst.fixed.me,fixed
dst.landline.ms,1664
dst.fixed.ms,fixed
dst.inbound.ms,1
dst.fixed.ma,fixed
dst.landline.ma,212
dst.inbound.ma,212
dst.fixed.mz,fixed
dst.landline.mz,258
dst.inbound.mz,258
dst.fixed.mz,fixed
dst.landline.mm,95
dst.inbound.mm,95
dst.fixed.mm,fixed
dst.landline.na,264
dst.inbound.na,264
dst.fixed.na,fixed
dst.landline.nr,674
dst.inbound.nr,674
dst.fixed.nr,fixed
dst.landline.np,977
dst.inbound.np,977
dst.fixed.np,fixed
dst.landline.nl,31
dst.inbound.nl,31
dst.fixed.nl,fixed
dst.landline.an,599
dst.inbound.an,599
dst.fixed.an,fixed
dst.fixed.nc,fixed
dst.fixed.nz,fixed
dst.landline.nz,64
dst.inbound.nz,64
dst.fixed.ni,fixed
dst.landline.ni,505
dst.inbound.ni,505
dst.fixed.ni,fixed
dst.landline.ne,227
dst.inbound.ne,227
dst.fixed.ne,fixed
dst.landline.ng,234
dst.inbound.ng,234
dst.fixed.ng,fixed
dst.fixed.nf,fixed
dst.landline.no,47
dst.inbound.no,47
dst.fixed.no,fixed
dst.landline.om,968
dst.inbound.om,968
dst.fixed.om,fixed
dst.landline.pk,92
dst.inbound.pk,92
dst.fixed.pk,fixed
dst.landline.pw,680
dst.fixed.pw,fixed
dst.inbound.pw,680
dst.fixed.ps,fixed
dst.fixed.pa,fixed
dst.landline.pa,507
dst.inbound.pa,507
dst.fixed.pa,fixed
dst.landline.pg,675
dst.inbound.pg,675
dst.fixed.pg,fixed
dst.landline.py,595
dst.inbound.py,595
dst.fixed.py,fixed
dst.landline.pe,51
dst.inbound.pe,51
dst.fixed.pe,fixed
dst.landline.ph,63
dst.inbound.ph,63
dst.fixed.ph,fixed
dst.landline.pl,48
dst.inbound.pl,48
dst.fixed.pl,fixed
dst.landline.pt,351
dst.inbound.pt,351
dst.fixed.pt,fixed
dst.landline.pr,1
dst.fixed.pr,fixed
dst.inbound.pr,1
dst.fixed.qa,fixed
dst.landline.qa,974
dst.inbound.qa,974
dst.fixed.re,fixed
dst.fixed.re,fixed
dst.landline.ro,40
dst.inbound.ro,40
dst.fixed.ro,fixed
dst.landline.ru,7
dst.inbound.ru,7
dst.fixed.ru,fixed
dst.landline.rw,250
dst.inbound.rw,250
dst.fixed.rw,fixed
dst.landline.ws,685
dst.inbound.ws,685
dst.fixed.ws,fixed
dst.landline.sm,378
dst.inbound.sm,378
dst.fixed.sm,fixed
dst.fixed.st,fixed
dst.landline.sa,966
dst.fixed.sa,fixed
dst.inbound.sa,966
dst.fixed.sn,fixed
dst.landline.sn,221
dst.inbound.sn,221
dst.fixed.rs,fixed
dst.landline.rs,381
dst.inbound.rs,381
dst.fixed.rs,fixed
dst.landline.sc,248
dst.inbound.sc,248
dst.fixed.sc,fixed
dst.fixed.sl,fixed
dst.landline.sg,65
dst.inbound.sg,65
dst.fixed.sg,fixed
dst.landline.sk,421
dst.inbound.sk,421
dst.fixed.sk,fixed
dst.landline.si,386
dst.inbound.si,386
dst.fixed.si,fixed
dst.landline.sb,677
dst.inbound.sb,677
dst.fixed.sb,fixed
dst.fixed.so,fixed
dst.fixed.za,fixed
dst.landline.za,27
dst.inbound.za,27
dst.fixed.kr,fixed
dst.landline.kr,82
dst.inbound.kr,82
dst.fixed.kr,fixed
dst.fixed.ss,fixed
dst.landline.es,34
dst.inbound.es,34
dst.fixed.es,fixed
dst.fixed.lk,fixed
dst.landline.kn,1869
dst.inbound.kn,1
dst.fixed.kn,fixed
dst.landline.lc,1758
dst.inbound.lc,1
dst.fixed.lc,fixed
dst.landline.vc,1784
dst.inbound.vc,1
dst.fixed.vc,fixed
dst.fixed.sd,fixed
dst.fixed.sr,fixed
dst.landline.sr,597
dst.inbound.sr,597
dst.fixed.sz,fixed
dst.landline.sz,268
dst.inbound.sz,268
dst.fixed.sz,fixed
dst.landline.se,46
dst.inbound.se,46
dst.fixed.se,fixed
dst.landline.ch,41
dst.inbound.ch,41
dst.fixed.ch,fixed
dst.landline.sy,963
dst.inbound.sy,963
dst.fixed.sy,fixed
dst.landline.tw,886
dst.inbound.tw,886
dst.fixed.tw,fixed
dst.landline.tj,992
dst.inbound.tj,992
dst.fixed.tj,fixed
dst.landline.tz,255
dst.inbound.tz,255
dst.fixed.tz,fixed
dst.landline.th,66
dst.fixed.th,fixed
dst.inbound.th,66
dst.fixed.tl,fixed
dst.fixed.tg,fixed
dst.landline.tg,228
dst.inbound.tg,228
dst.fixed.tg,fixed
dst.landline.to,676
dst.inbound.to,676
dst.fixed.to,fixed
dst.landline.tt,1868
dst.inbound.tt,1
dst.fixed.tt,fixed
dst.landline.tn,216
dst.inbound.tn,216
dst.fixed.tn,fixed
dst.landline.tr,90
dst.inbound.tr,90
dst.fixed.tr,fixed
dst.landline.tm,993
dst.inbound.tm,993
dst.fixed.tm,fixed
dst.landline.ug,256
dst.fixed.ug,fixed
dst.inbound.ug,256
dst.fixed.ua,fixed
dst.landline.ua,380
dst.inbound.ua,380
dst.fixed.ae,fixed
dst.landline.ae,971
dst.inbound.ae,971
dst.fixed.ae,fixed
dst.landline.gb,44
dst.landline.gb,447
dst.inbound.gb,44
dst.fixed.gb,fixed
dst.landline.us,1201
dst.landline.us,1202
dst.landline.us,1203
dst.landline.us,1204
dst.landline.us,1205
dst.landline.us,1206
dst.landline.us,1207
dst.landline.us,1208
dst.landline.us,1209
dst.landline.us,1210
dst.landline.us,1212
dst.landline.us,1213
dst.landline.us,1214
dst.landline.us,1215
dst.landline.us,1216
dst.landline.us,1217
dst.landline.us,1218
dst.landline.us,1219
dst.landline.us,1225
dst.landline.us,1228
dst.landline.us,1229
dst.landline.us,1231
dst.landline.us,1234
dst.landline.us,1240
dst.landline.us,1242
dst.landline.us,1246
dst.landline.us,1248
dst.landline.us,1250
dst.landline.us,1252
dst.landline.us,1253
dst.landline.us,1254
dst.landline.us,1256
dst.landline.us,1262
dst.landline.us,1264
dst.landline.us,1267
dst.landline.us,1268
dst.landline.us,1270
dst.landline.us,1281
dst.landline.us,1284
dst.landline.us,1301
dst.landline.us,1302
dst.landline.us,1303
dst.landline.us,1304
dst.landline.us,1305
dst.landline.us,1306
dst.landline.us,1307
dst.landline.us,1308
dst.landline.us,1309
dst.landline.us,1310
dst.landline.us,1312
dst.landline.us,1313
dst.landline.us,1314
dst.landline.us,1315
dst.landline.us,1316
dst.landline.us,1317
dst.landline.us,1318
dst.landline.us,1319
dst.landline.us,1320
dst.landline.us,1321
dst.landline.us,1323
dst.landline.us,1330
dst.landline.us,1334
dst.landline.us,1336
dst.landline.us,1337
dst.landline.us,1340
dst.landline.us,1345
dst.landline.us,1347
dst.landline.us,1352
dst.landline.us,1360
dst.landline.us,1361
dst.landline.us,1385
dst.landline.us,1401
dst.landline.us,1402
dst.landline.us,1403
dst.landline.us,1404
dst.landline.us,1405
dst.landline.us,1406
dst.landline.us,1407
dst.landline.us,1408
dst.landline.us,1409
dst.landline.us,1410
dst.landline.us,1412
dst.landline.us,1413
dst.landline.us,1414
dst.landline.us,1415
dst.landline.us,1416
dst.landline.us,1417
dst.landline.us,1419
dst.landline.us,1423
dst.landline.us,1425
dst.landline.us,1435
dst.landline.us,1440
dst.landline.us,1441
dst.landline.us,1443
dst.landline.us,1456
dst.landline.us,1469
dst.landline.us,1473
dst.landline.us,1478
dst.landline.us,1480
dst.landline.us,1484
dst.landline.us,1500
dst.landline.us,1501
dst.landline.us,1502
dst.landline.us,1503
dst.landline.us,1504
dst.landline.us,1505
dst.landline.us,1506
dst.landline.us,1507
dst.landline.us,1508
dst.landline.us,1509
dst.landline.us,1510
dst.landline.us,1512
dst.landline.us,1513
dst.landline.us,1515
dst.landline.us,1516
dst.landline.us,1517
dst.landline.us,1518
dst.landline.us,1520
dst.landline.us,1530
dst.landline.us,1540
dst.landline.us,1541
dst.landline.us,1559
dst.landline.us,1561
dst.landline.us,1562
dst.landline.us,1570
dst.landline.us,1571
dst.landline.us,1573
dst.landline.us,1580
dst.landline.us,1600
dst.landline.us,1601
dst.landline.us,1602
dst.landline.us,1603
dst.landline.us,1604
dst.landline.us,1605
dst.landline.us,1606
dst.landline.us,1607
dst.landline.us,1608
dst.landline.us,1609
dst.landline.us,1610
dst.landline.us,1612
dst.landline.us,1614
dst.landline.us,1615
dst.landline.us,1616
dst.landline.us,1617
dst.landline.us,1618
dst.landline.us,1619
dst.landline.us,1623
dst.landline.us,1626
dst.landline.us,1630
dst.landline.us,1631
dst.landline.us,1636
dst.landline.us,1641
dst.landline.us,1646
dst.landline.us,1649
dst.landline.us,1650
dst.landline.us,1651
dst.landline.us,1660
dst.landline.us,1661
dst.landline.us,1662
dst.landline.us,1664
dst.landline.us,1670
dst.landline.us,1671
dst.landline.us,1678
dst.landline.us,1682
dst.landline.us,1700
dst.landline.us,1701
dst.landline.us,1702
dst.landline.us,1703
dst.landline.us,1704
dst.landline.us,1706
dst.landline.us,1707
dst.landline.us,1708
dst.landline.us,1710
dst.landline.us,1712
dst.landline.us,1713
dst.landline.us,1714
dst.landline.us,1715
dst.landline.us,1716
dst.landline.us,1717
dst.landline.us,1718
dst.landline.us,1719
dst.landline.us,1720
dst.landline.us,1724
dst.landline.us,1727
dst.landline.us,1732
dst.landline.us,1734
dst.landline.us,1740
dst.landline.us,1757
dst.landline.us,1758
dst.landline.us,1760
dst.landline.us,1763
dst.landline.us,1765
dst.landline.us,1767
dst.landline.us,1770
dst.landline.us,1773
dst.landline.us,1775
dst.landline.us,1781
dst.landline.us,1784
dst.landline.us,1785
dst.landline.us,1786
dst.landline.us,1787
dst.landline.us,1800
dst.landline.us,1801
dst.landline.us,1802
dst.landline.us,1803
dst.landline.us,1804
dst.landline.us,1805
dst.landline.us,1806
dst.landline.us,1808
dst.landline.us,1809
dst.landline.us,1810
dst.landline.us,1812
dst.landline.us,1813
dst.landline.us,1814
dst.landline.us,1815
dst.landline.us,1816
dst.landline.us,1817
dst.landline.us,1818
dst.landline.us,1828
dst.landline.us,1830
dst.landline.us,1831
dst.landline.us,1832
dst.landline.us,1843
dst.landline.us,1845
dst.landline.us,1847
dst.landline.us,1850
dst.landline.us,1856
dst.landline.us,1858
dst.landline.us,1859
dst.landline.us,1860
dst.landline.us,1863
dst.landline.us,1864
dst.landline.us,1865
dst.landline.us,1866
dst.landline.us,1868
dst.landline.us,1869
dst.landline.us,1870
dst.landline.us,1876
dst.landline.us,1877
dst.landline.us,1880
dst.landline.us,1881
dst.landline.us,1882
dst.landline.us,1888
dst.landline.us,1900
dst.landline.us,1901
dst.landline.us,1903
dst.landline.us,1904
dst.landline.us,1906
dst.landline.us,1907
dst.landline.us,1908
dst.landline.us,1909
dst.landline.us,1910
dst.landline.us,1912
dst.landline.us,1913
dst.landline.us,1914
dst.landline.us,1915
dst.landline.us,1916
dst.landline.us,1917
dst.landline.us,1918
dst.landline.us,1919
dst.landline.us,1920
dst.landline.us,1925
dst.landline.us,1931
dst.landline.us,1936
dst.landline.us,1937
dst.landline.us,1940
dst.landline.us,1941
dst.landline.us,1949
dst.landline.us,1952
dst.landline.us,1954
dst.landline.us,1956
dst.landline.us,1970
dst.landline.us,1971
dst.landline.us,1972
dst.landline.us,1973
dst.landline.us,1978
dst.landline.us,1979
dst.landline.us,1
dst.inbound.us,1
dst.fixed.us,fixed
dst.landline.uy,598
dst.inbound.uy,598
dst.fixed.uy,fixed
dst.landline.uz,998
dst.inbound.uz,998
dst.fixed.uz,fixed
dst.landline.vu,678
dst.inbound.vu,678
dst.fixed.vu,fixed
dst.landline.ve,58
dst.inbound.ve,58
dst.fixed.ve,fixed
dst.landline.vn,84
dst.fixed.vn,fixed
dst.inbound.vn,84
dst.fixed.vg,fixed
dst.fixed.vi,fixed
dst.fixed.vi,fixed
dst.landline.ye,967
dst.inbound.ye,967
dst.fixed.ye,fixed
dst.landline.zm,260
dst.inbound.zm,260
dst.fixed.zm,fixed
dst.landline.zw,263
dst.inbound.zw,263
dst.fixed.zw,fixed
dst.landline.au,612
dst.landline.au,613
dst.landline.au,618
dst.landline.au,614
dst.landline.au,617
dst.landline.au,61
dst.landline.au,6189164
dst.landline.au,6189162
dst.inbound.au,61
dst.tollfreeinbound.au,611800
dst.tollfreeinbound.au,611300
dst.tollfreeinbound.au,6113
dst.tollfreeoutbound.au,611800
dst.tollfreeoutbound.au,611300
dst.tollfreeoutbound.au,6113
dst.fixed.au,fixed
dst.landline.al,355
dst.inbound.al,355
dst.fixed.al,fixed
dst.landline.dz,213
dst.inbound.dz,213
dst.fixed.dz,fixed
dst.fixed.ad,fixed
dst.landline.ao,244
dst.fixed.ao,fixed
dst.inbound.ao,244
dst.fixed.ai,fixed
dst.landline.ai,1264
dst.inbound.ai,1
dst.fixed.ag,fixed
dst.landline.ag,1268
dst.inbound.ag,1
dst.fixed.ag,fixed
dst.landline.ar,54
dst.inbound.ar,54
dst.fixed.ar,fixed
dst.landline.am,374
dst.inbound.am,374
dst.fixed.am,fixed
dst.landline.aw,297
dst.inbound.aw,297
dst.fixed.aw,fixed
dst.landline.af,93
dst.inbound.af,93
dst.fixed.af,fixed
dst.landline.at,43
dst.inbound.at,43
dst.fixed.at,fixed
dst.landline.az,994
dst.inbound.az,994
dst.fixed.az,fixed
dst.landline.bs,1242
dst.fixed.bs,fixed
dst.inbound.bs,1
dst.fixed.bh,fixed
dst.landline.bh,973
dst.inbound.bh,973
dst.fixed.bd,fixed
dst.landline.bd,880
dst.inbound.bd,880
dst.fixed.bd,fixed
dst.landline.bb,1246
dst.inbound.bb,1
dst.fixed.bb,fixed
dst.landline.by,375
dst.inbound.by,375
dst.fixed.by,fixed
dst.landline.be,32
dst.inbound.be,32
dst.fixed.be,fixed
dst.landline.bz,501
dst.inbound.bz,501
dst.fixed.bz,fixed
dst.landline.bj,229
dst.inbound.bj,229
dst.fixed.bj,fixed
dst.landline.bm,1441
dst.inbound.bm,1
dst.fixed.bm,fixed
dst.landline.bt,975
dst.fixed.bt,fixed
dst.inbound.bt,975
dst.fixed.bo,fixed
dst.landline.bo,591
dst.inbound.bo,591
dst.fixed.ba,fixed
dst.fixed.ba,fixed
dst.landline.bw,267
dst.inbound.bw,267
dst.fixed.bw,fixed
dst.landline.br,55
dst.inbound.br,55
dst.fixed.br,fixed
dst.landline.bn,673
dst.inbound.bn,673
dst.fixed.bn,fixed
dst.landline.bg,359
dst.inbound.bg,359
dst.fixed.bg,fixed
dst.fixed.bf,fixed
dst.landline.bi,257
dst.inbound.bi,257
dst.fixed.bi,fixed
dst.landline.kh,855
dst.fixed.kh,fixed
dst.inbound.kh,855
dst.fixed.cm,fixed
dst.landline.cm,237
dst.inbound.cm,237
dst.fixed.ca,fixed
dst.landline.ca,1902
dst.landline.ca,1506
dst.landline.ca,1709
dst.landline.ca,1416
dst.landline.ca,1236
dst.landline.ca,1778
dst.landline.ca,1604
dst.landline.ca,1204
dst.landline.ca,1867
dst.landline.ca,1514
dst.landline.ca,1613
dst.landline.ca,1647
dst.landline.ca,1705
dst.landline.ca,1807
dst.landline.ca,1819
dst.landline.ca,1867
dst.landline.ca,1867
dst.landline.ca,1867
dst.landline.ca,1902
dst.landline.ca,1905
dst.landline.ca,1244
dst.landline.ca,1587
dst.landline.ca,1780
dst.landline.ca,1819
dst.landline.ca,1519
dst.landline.ca,1226
dst.landline.ca,1905
dst.landline.ca,1289
dst.landline.ca,1514
dst.landline.ca,1438
dst.landline.ca,1613
dst.landline.ca,1343
dst.landline.ca,1581
dst.landline.ca,1418
dst.landline.ca,1306
dst.landline.ca,1705
dst.landline.ca,1249
dst.landline.ca,1600
dst.landline.ca,1450
dst.landline.ca,1579
dst.landline.ca,1807
dst.landline.ca,1647
dst.landline.ca,1250
dst.landline.ca,1780
dst.landline.ca,1902
dst.landline.ca,1418
dst.landline.ca,1450
dst.landline.ca,1519
dst.inbound.ca,1
dst.fixed.ca,fixed
dst.landline.cv,238
dst.inbound.cv,238
dst.fixed.cv,fixed
dst.landline.ky,1345
dst.inbound.ky,1
dst.fixed.ky,fixed
dst.landline.cf,236
dst.inbound.cf,236
dst.fixed.cf,fixed
dst.landline.td,235
dst.inbound.td,235
dst.fixed.td,fixed
dst.landline.cl,56
dst.inbound.cl,56
dst.fixed.cl,fixed
dst.landline.cn,86
dst.inbound.cn,86
dst.fixed.cn,fixed
dst.landline.co,57
dst.fixed.co,fixed
dst.inbound.co,57
dst.fixed.cg,fixed
dst.fixed.cd,fixed
dst.fixed.cd,fixed
dst.fixed.ck,fixed
dst.landline.cr,506
dst.inbound.cr,506
dst.fixed.cr,fixed
dst.fixed.ci,fixed
dst.landline.hr,385
dst.inbound.hr,385
dst.fixed.hr,fixed
dst.landline.cu,53
dst.inbound.cu,53
dst.fixed.cu,fixed
dst.landline.cz,420
dst.fixed.cz,fixed
dst.inbound.cz,420
dst.fixed.dk,fixed
dst.landline.dk,45
dst.inbound.dk,45
dst.fixed.dg,fixed
dst.fixed.dg,fixed
dst.landline.dj,253
dst.inbound.dj,253
dst.fixed.dj,fixed
dst.landline.dm,1767
dst.inbound.dm,1
dst.fixed.dm,fixed
dst.landline.do,1809
dst.inbound.do,1
dst.fixed.do,fixed
dst.landline.ec,593
dst.inbound.ec,593
dst.fixed.ec,fixed
dst.landline.eg,20
dst.inbound.eg,20
dst.fixed.eg,fixed
dst.landline.sv,503
dst.inbound.sv,503
dst.fixed.sv,fixed
dst.landline.gq,240
dst.fixed.gq,fixed
dst.inbound.gq,240
dst.fixed.ee,fixed
dst.landline.ee,372
dst.inbound.ee,372
dst.fixed.fk,fixed
dst.fixed.fk,fixed
dst.fixed.fo,fixed
dst.landline.fj,679
dst.inbound.fj,679
dst.fixed.fj,fixed
dst.landline.fi,358
dst.inbound.fi,358
dst.fixed.fi,fixed
dst.landline.fr,33
dst.inbound.fr,33
dst.fixed.fr,fixed
dst.fixed.gf,fixed
dst.landline.pf,689
dst.inbound.pf,689
dst.fixed.pf,fixed
dst.landline.ga,241
dst.fixed.ga,fixed
dst.inbound.ga,241
dst.fixed.gm,fixed
dst.landline.gm,220
dst.inbound.gm,220
dst.fixed.ge,fixed
dst.landline.ge,995
dst.inbound.ge,995
dst.fixed.ge,fixed
dst.landline.de,49
dst.inbound.de,49
dst.fixed.de,fixed
dst.landline.gh,233
dst.inbound.gh,233
dst.fixed.gh,fixed
dst.landline.gi,350
dst.inbound.gi,350
dst.fixed.gi,fixed
dst.landline.gr,30
dst.inbound.gr,30
dst.fixed.gr,fixed
dst.landline.gl,299
dst.inbound.gl,299
dst.fixed.gl,fixed
dst.landline.gd,1473
dst.inbound.gd,1
dst.fixed.gd,fixed
dst.fixed.gp,fixed
dst.fixed.gu,fixed
dst.landline.gu,1671
dst.inbound.gu,1
dst.fixed.gt,fixed
dst.landline.gt,502
dst.inbound.gt,502
dst.fixed.gt,fixed
dst.fixed.gg,fixed
dst.landline.gn,224
dst.inbound.gn,224
dst.fixed.gn,fixed
dst.landline.gw,245
dst.inbound.gw,245
dst.fixed.gw,fixed
dst.landline.gy,592
dst.inbound.gy,592
dst.fixed.gy,fixed
dst.landline.ht,509
dst.inbound.ht,509
dst.fixed.ht,fixed
dst.landline.hn,504
dst.inbound.hn,504
dst.fixed.hn,fixed
dst.landline.hk,852
dst.fixed.hk,fixed
dst.inbound.hk,852
dst.fixed.hu,fixed
dst.landline.hu,36
dst.inbound.hu,36
dst.fixed.is,fixed
dst.landline.is,354
dst.inbound.is,354
dst.fixed.is,fixed
dst.landline.in,91
dst.inbound.in,91
dst.fixed.in,fixed
dst.landline.id,62
dst.inbound.id,62
dst.fixed.id,fixed
dst.landline.ir,98
dst.inbound.ir,98
dst.fixed.ir,fixed
dst.landline.iq,964
dst.inbound.iq,964
dst.fixed.iq,fixed
dst.landline.ie,353
dst.inbound.ie,353
dst.fixed.ie,fixed
dst.fixed.im,fixed
dst.landline.il,972
dst.fixed.il,fixed
dst.inbound.il,972
dst.fixed.it,fixed
dst.landline.it,39
dst.inbound.it,39
dst.fixed.jm,fixed
dst.landline.jm,1876
dst.inbound.jm,1
dst.fixed.jm,fixed
dst.landline.jp,81
dst.inbound.jp,81
dst.fixed.jp,fixed
dst.fixed.je,fixed
dst.landline.jo,962
dst.inbound.jo,962
dst.fixed.jo,fixed
dst.landline.kz,7
dst.inbound.kz,7
dst.fixed.kz,fixed
dst.landline.ke,254
dst.inbound.ke,254
dst.fixed.ke,fixed
dst.fixed.xk,fixed
dst.landline.kw,965
dst.fixed.kw,fixed
dst.inbound.kw,965
dst.fixed.kg,fixed
dst.landline.kg,996
dst.inbound.kg,996
dst.fixed.la,fixed
dst.landline.la,856
dst.inbound.la,856
dst.fixed.la,fixed
dst.landline.lv,371
dst.inbound.lv,371
dst.fixed.lv,fixed
dst.landline.lb,961
dst.inbound.lb,961
dst.fixed.lb,fixed
dst.landline.ls,266
dst.inbound.ls,266
dst.fixed.ls,fixed
dst.fixed.lr,fixed
dst.landline.ly,218
dst.inbound.ly,218
dst.fixed.ly,fixed
dst.landline.li,423
dst.inbound.li,423
dst.fixed.li,fixed
dst.fixed.lt,fixed
dst.fixed.lu,fixed
dst.landline.lu,352
dst.inbound.lu,352
dst.fixed.mo,fixed
dst.landline.mo,853
dst.inbound.mo,853
dst.fixed.mo,fixed
dst.landline.mk,389
dst.inbound.mk,389
dst.fixed.mk,fixed
dst.landline.mg,261
dst.inbound.mg,261
dst.fixed.mg,fixed
dst.landline.mw,265
dst.inbound.mw,265
dst.fixed.mw,fixed
dst.landline.my,60
dst.inbound.my,60
dst.fixed.my,fixed
dst.landline.mv,960
dst.inbound.mv,960
dst.fixed.mv,fixed
dst.landline.ml,223
dst.inbound.ml,223
dst.fixed.ml,fixed
dst.landline.mt,356
dst.fixed.mt,fixed
dst.inbound.mt,356
dst.fixed.mq,fixed
dst.fixed.mr,fixed
dst.landline.mr,222
dst.inbound.mr,222
dst.fixed.mr,fixed
dst.landline.mu,230
dst.inbound.mu,230
dst.fixed.mu,fixed
dst.landline.yt,262
dst.inbound.yt,262
dst.fixed.yt,fixed
dst.landline.mx,52
dst.inbound.mx,52
dst.fixed.mx,fixed
dst.landline.md,373
dst.inbound.md,373
dst.fixed.md,fixed
dst.landline.mn,976
dst.inbound.mn,976
dst.fixed.mn,fixed
dst.landline.me,382
dst.inbound.me,382
dst.fixed.me,fixed
dst.landline.ms,1664
dst.fixed.ms,fixed
dst.inbound.ms,1
dst.fixed.ma,fixed
dst.landline.ma,212
dst.inbound.ma,212
dst.fixed.mz,fixed
dst.landline.mz,258
dst.inbound.mz,258
dst.fixed.mz,fixed
dst.landline.mm,95
dst.inbound.mm,95
dst.fixed.mm,fixed
dst.landline.na,264
dst.inbound.na,264
dst.fixed.na,fixed
dst.landline.nr,674
dst.inbound.nr,674
dst.fixed.nr,fixed
dst.landline.np,977
dst.inbound.np,977
dst.fixed.np,fixed
dst.landline.nl,31
dst.inbound.nl,31
dst.fixed.nl,fixed
dst.landline.an,599
dst.inbound.an,599
dst.fixed.an,fixed
dst.fixed.nc,fixed
dst.fixed.nz,fixed
dst.landline.nz,64
dst.inbound.nz,64
dst.fixed.ni,fixed
dst.landline.ni,505
dst.inbound.ni,505
dst.fixed.ni,fixed
dst.landline.ne,227
dst.inbound.ne,227
dst.fixed.ne,fixed
dst.landline.ng,234
dst.inbound.ng,234
dst.fixed.ng,fixed
dst.fixed.nf,fixed
dst.landline.no,47
dst.inbound.no,47
dst.fixed.no,fixed
dst.landline.om,968
dst.inbound.om,968
dst.fixed.om,fixed
dst.landline.pk,92
dst.inbound.pk,92
dst.fixed.pk,fixed
dst.landline.pw,680
dst.fixed.pw,fixed
dst.inbound.pw,680
dst.fixed.ps,fixed
dst.fixed.pa,fixed
dst.landline.pa,507
dst.inbound.pa,507
dst.fixed.pa,fixed
dst.landline.pg,675
dst.inbound.pg,675
dst.fixed.pg,fixed
dst.landline.py,595
dst.inbound.py,595
dst.fixed.py,fixed
dst.landline.pe,51
dst.inbound.pe,51
dst.fixed.pe,fixed
dst.landline.ph,63
dst.inbound.ph,63
dst.fixed.ph,fixed
dst.landline.pl,48
dst.inbound.pl,48
dst.fixed.pl,fixed
dst.landline.pt,351
dst.inbound.pt,351
dst.fixed.pt,fixed
dst.landline.pr,1
dst.fixed.pr,fixed
dst.inbound.pr,1
dst.fixed.qa,fixed
dst.landline.qa,974
dst.inbound.qa,974
dst.fixed.re,fixed
dst.fixed.re,fixed
dst.landline.ro,40
dst.inbound.ro,40
dst.fixed.ro,fixed
dst.landline.ru,7
dst.inbound.ru,7
dst.fixed.ru,fixed
dst.landline.rw,250
dst.inbound.rw,250
dst.fixed.rw,fixed
dst.landline.ws,685
dst.inbound.ws,685
dst.fixed.ws,fixed
dst.landline.sm,378
dst.inbound.sm,378
dst.fixed.sm,fixed
dst.fixed.st,fixed
dst.landline.sa,966
dst.fixed.sa,fixed
dst.inbound.sa,966
dst.fixed.sn,fixed
dst.landline.sn,221
dst.inbound.sn,221
dst.fixed.rs,fixed
dst.landline.rs,381
dst.inbound.rs,381
dst.fixed.rs,fixed
dst.landline.sc,248
dst.inbound.sc,248
dst.fixed.sc,fixed
dst.fixed.sl,fixed
dst.landline.sg,65
dst.inbound.sg,65
dst.fixed.sg,fixed
dst.landline.sk,421
dst.inbound.sk,421
dst.fixed.sk,fixed
dst.landline.si,386
dst.inbound.si,386
dst.fixed.si,fixed
dst.landline.sb,677
dst.inbound.sb,677
dst.fixed.sb,fixed
dst.fixed.so,fixed
dst.fixed.za,fixed
dst.landline.za,27
dst.inbound.za,27
dst.fixed.kr,fixed
dst.landline.kr,82
dst.inbound.kr,82
dst.fixed.kr,fixed
dst.fixed.ss,fixed
dst.landline.es,34
dst.inbound.es,34
dst.fixed.es,fixed
dst.fixed.lk,fixed
dst.landline.kn,1869
dst.inbound.kn,1
dst.fixed.kn,fixed
dst.landline.lc,1758
dst.inbound.lc,1
dst.fixed.lc,fixed
dst.landline.vc,1784
dst.inbound.vc,1
dst.fixed.vc,fixed
dst.fixed.sd,fixed
dst.fixed.sr,fixed
dst.landline.sr,597
dst.inbound.sr,597
dst.fixed.sz,fixed
dst.landline.sz,268
dst.inbound.sz,268
dst.fixed.sz,fixed
dst.landline.se,46
dst.inbound.se,46
dst.fixed.se,fixed
dst.landline.ch,41
dst.inbound.ch,41
dst.fixed.ch,fixed
dst.landline.sy,963
dst.inbound.sy,963
dst.fixed.sy,fixed
dst.landline.tw,886
dst.inbound.tw,886
dst.fixed.tw,fixed
dst.landline.tj,992
dst.inbound.tj,992
dst.fixed.tj,fixed
dst.landline.tz,255
dst.inbound.tz,255
dst.fixed.tz,fixed
dst.landline.th,66
dst.fixed.th,fixed
dst.inbound.th,66
dst.fixed.tl,fixed
dst.fixed.tg,fixed
dst.landline.tg,228
dst.inbound.tg,228
dst.fixed.tg,fixed
dst.landline.to,676
dst.inbound.to,676
dst.fixed.to,fixed
dst.landline.tt,1868
dst.inbound.tt,1
dst.fixed.tt,fixed
dst.landline.tn,216
dst.inbound.tn,216
dst.fixed.tn,fixed
dst.landline.tr,90
dst.inbound.tr,90
dst.fixed.tr,fixed
dst.landline.tm,993
dst.inbound.tm,993
dst.fixed.tm,fixed
dst.landline.ug,256
dst.fixed.ug,fixed
dst.inbound.ug,256
dst.fixed.ua,fixed
dst.landline.ua,380
dst.inbound.ua,380
dst.fixed.ae,fixed
dst.landline.ae,971
dst.inbound.ae,971
dst.fixed.ae,fixed
dst.landline.gb,44
dst.landline.gb,447
dst.inbound.gb,44
dst.fixed.gb,fixed
dst.landline.us,1201
dst.landline.us,1202
dst.landline.us,1203
dst.landline.us,1204
dst.landline.us,1205
dst.landline.us,1206
dst.landline.us,1207
dst.landline.us,1208
dst.landline.us,1209
dst.landline.us,1210
dst.landline.us,1212
dst.landline.us,1213
dst.landline.us,1214
dst.landline.us,1215
dst.landline.us,1216
dst.landline.us,1217
dst.landline.us,1218
dst.landline.us,1219
dst.landline.us,1225
dst.landline.us,1228
dst.landline.us,1229
dst.landline.us,1231
dst.landline.us,1234
dst.landline.us,1240
dst.landline.us,1242
dst.landline.us,1246
dst.landline.us,1248
dst.landline.us,1250
dst.landline.us,1252
dst.landline.us,1253
dst.landline.us,1254
dst.landline.us,1256
dst.landline.us,1262
dst.landline.us,1264
dst.landline.us,1267
dst.landline.us,1268
dst.landline.us,1270
dst.landline.us,1281
dst.landline.us,1284
dst.landline.us,1301
dst.landline.us,1302
dst.landline.us,1303
dst.landline.us,1304
dst.landline.us,1305
dst.landline.us,1306
dst.landline.us,1307
dst.landline.us,1308
dst.landline.us,1309
dst.landline.us,1310
dst.landline.us,1312
dst.landline.us,1313
dst.landline.us,1314
dst.landline.us,1315
dst.landline.us,1316
dst.landline.us,1317
dst.landline.us,1318
dst.landline.us,1319
dst.landline.us,1320
dst.landline.us,1321
dst.landline.us,1323
dst.landline.us,1330
dst.landline.us,1334
dst.landline.us,1336
dst.landline.us,1337
dst.landline.us,1340
dst.landline.us,1345
dst.landline.us,1347
dst.landline.us,1352
dst.landline.us,1360
dst.landline.us,1361
dst.landline.us,1385
dst.landline.us,1401
dst.landline.us,1402
dst.landline.us,1403
dst.landline.us,1404
dst.landline.us,1405
dst.landline.us,1406
dst.landline.us,1407
dst.landline.us,1408
dst.landline.us,1409
dst.landline.us,1410
dst.landline.us,1412
dst.landline.us,1413
dst.landline.us,1414
dst.landline.us,1415
dst.landline.us,1416
dst.landline.us,1417
dst.landline.us,1419
dst.landline.us,1423
dst.landline.us,1425
dst.landline.us,1435
dst.landline.us,1440
dst.landline.us,1441
dst.landline.us,1443
dst.landline.us,1456
dst.landline.us,1469
dst.landline.us,1473
dst.landline.us,1478
dst.landline.us,1480
dst.landline.us,1484
dst.landline.us,1500
dst.landline.us,1501
dst.landline.us,1502
dst.landline.us,1503
dst.landline.us,1504
dst.landline.us,1505
dst.landline.us,1506
dst.landline.us,1507
dst.landline.us,1508
dst.landline.us,1509
dst.landline.us,1510
dst.landline.us,1512
dst.landline.us,1513
dst.landline.us,1515
dst.landline.us,1516
dst.landline.us,1517
dst.landline.us,1518
dst.landline.us,1520
dst.landline.us,1530
dst.landline.us,1540
dst.landline.us,1541
dst.landline.us,1559
dst.landline.us,1561
dst.landline.us,1562
dst.landline.us,1570
dst.landline.us,1571
dst.landline.us,1573
dst.landline.us,1580
dst.landline.us,1600
dst.landline.us,1601
dst.landline.us,1602
dst.landline.us,1603
dst.landline.us,1604
dst.landline.us,1605
dst.landline.us,1606
dst.landline.us,1607
dst.landline.us,1608
dst.landline.us,1609
dst.landline.us,1610
dst.landline.us,1612
dst.landline.us,1614
dst.landline.us,1615
dst.landline.us,1616
dst.landline.us,1617
dst.landline.us,1618
dst.landline.us,1619
dst.landline.us,1623
dst.landline.us,1626
dst.landline.us,1630
dst.landline.us,1631
dst.landline.us,1636
dst.landline.us,1641
dst.landline.us,1646
dst.landline.us,1649
dst.landline.us,1650
dst.landline.us,1651
dst.landline.us,1660
dst.landline.us,1661
dst.landline.us,1662
dst.landline.us,1664
dst.landline.us,1670
dst.landline.us,1671
dst.landline.us,1678
dst.landline.us,1682
dst.landline.us,1700
dst.landline.us,1701
dst.landline.us,1702
dst.landline.us,1703
dst.landline.us,1704
dst.landline.us,1706
dst.landline.us,1707
dst.landline.us,1708
dst.landline.us,1710
dst.landline.us,1712
dst.landline.us,1713
dst.landline.us,1714
dst.landline.us,1715
dst.landline.us,1716
dst.landline.us,1717
dst.landline.us,1718
dst.landline.us,1719
dst.landline.us,1720
dst.landline.us,1724
dst.landline.us,1727
dst.landline.us,1732
dst.landline.us,1734
dst.landline.us,1740
dst.landline.us,1757
dst.landline.us,1758
dst.landline.us,1760
dst.landline.us,1763
dst.landline.us,1765
dst.landline.us,1767
dst.landline.us,1770
dst.landline.us,1773
dst.landline.us,1775
dst.landline.us,1781
dst.landline.us,1784
dst.landline.us,1785
dst.landline.us,1786
dst.landline.us,1787
dst.landline.us,1800
dst.landline.us,1801
dst.landline.us,1802
dst.landline.us,1803
dst.landline.us,1804
dst.landline.us,1805
dst.landline.us,1806
dst.landline.us,1808
dst.landline.us,1809
dst.landline.us,1810
dst.landline.us,1812
dst.landline.us,1813
dst.landline.us,1814
dst.landline.us,1815
dst.landline.us,1816
dst.landline.us,1817
dst.landline.us,1818
dst.landline.us,1828
dst.landline.us,1830
dst.landline.us,1831
dst.landline.us,1832
dst.landline.us,1843
dst.landline.us,1845
dst.landline.us,1847
dst.landline.us,1850
dst.landline.us,1856
dst.landline.us,1858
dst.landline.us,1859
dst.landline.us,1860
dst.landline.us,1863
dst.landline.us,1864
dst.landline.us,1865
dst.landline.us,1866
dst.landline.us,1868
dst.landline.us,1869
dst.landline.us,1870
dst.landline.us,1876
dst.landline.us,1877
dst.landline.us,1880
dst.landline.us,1881
dst.landline.us,1882
dst.landline.us,1888
dst.landline.us,1900
dst.landline.us,1901
dst.landline.us,1903
dst.landline.us,1904
dst.landline.us,1906
dst.landline.us,1907
dst.landline.us,1908
dst.landline.us,1909
dst.landline.us,1910
dst.landline.us,1912
dst.landline.us,1913
dst.landline.us,1914
dst.landline.us,1915
dst.landline.us,1916
dst.landline.us,1917
dst.landline.us,1918
dst.landline.us,1919
dst.landline.us,1920
dst.landline.us,1925
dst.landline.us,1931
dst.landline.us,1936
dst.landline.us,1937
dst.landline.us,1940
dst.landline.us,1941
dst.landline.us,1949
dst.landline.us,1952
dst.landline.us,1954
dst.landline.us,1956
dst.landline.us,1970
dst.landline.us,1971
dst.landline.us,1972
dst.landline.us,1973
dst.landline.us,1978
dst.landline.us,1979
dst.landline.us,1
dst.inbound.us,1
dst.fixed.us,fixed
dst.landline.uy,598
dst.inbound.uy,598
dst.fixed.uy,fixed
dst.landline.uz,998
dst.inbound.uz,998
dst.fixed.uz,fixed
dst.landline.vu,678
dst.inbound.vu,678
dst.fixed.vu,fixed
dst.landline.ve,58
dst.inbound.ve,58
dst.fixed.ve,fixed
dst.landline.vn,84
dst.fixed.vn,fixed
dst.inbound.vn,84
dst.fixed.vg,fixed
dst.fixed.vi,fixed
dst.fixed.vi,fixed
dst.landline.ye,967
dst.inbound.ye,967
dst.fixed.ye,fixed
dst.landline.zm,260
dst.inbound.zm,260
dst.fixed.zm,fixed
dst.landline.zw,263
dst.inbound.zw,263
dst.fixed.zw,fixed
dst.landline.au,612
dst.landline.au,613
dst.landline.au,618
dst.landline.au,614
dst.landline.au,617
dst.landline.au,61
dst.landline.au,6189164
dst.landline.au,6189162
dst.inbound.au,61
dst.tollfreeinbound.au,611800
dst.tollfreeinbound.au,611300
dst.tollfreeinbound.au,6113
dst.tollfreeoutbound.au,611800
dst.tollfreeoutbound.au,611300
dst.tollfreeoutbound.au,6113
dst.fixed.au,fixed
dst.landline.al,355
dst.inbound.al,355
dst.fixed.al,fixed
dst.landline.dz,213
dst.inbound.dz,213
dst.fixed.dz,fixed
dst.fixed.ad,fixed
dst.landline.ao,244
dst.fixed.ao,fixed
dst.inbound.ao,244
dst.fixed.ai,fixed
dst.landline.ai,1264
dst.inbound.ai,1
dst.fixed.ag,fixed
dst.landline.ag,1268
dst.inbound.ag,1
dst.fixed.ag,fixed
dst.landline.ar,54
dst.inbound.ar,54
dst.fixed.ar,fixed
dst.landline.am,374
dst.inbound.am,374
dst.fixed.am,fixed
dst.landline.aw,297
dst.inbound.aw,297
dst.fixed.aw,fixed
dst.landline.af,93
dst.inbound.af,93
dst.fixed.af,fixed
dst.landline.at,43
dst.inbound.at,43
dst.fixed.at,fixed
dst.landline.az,994
dst.inbound.az,994
dst.fixed.az,fixed
dst.landline.bs,1242
dst.fixed.bs,fixed
dst.inbound.bs,1
dst.fixed.bh,fixed
dst.landline.bh,973
dst.inbound.bh,973
dst.fixed.bd,fixed
dst.landline.bd,880
dst.inbound.bd,880
dst.fixed.bd,fixed
dst.landline.bb,1246
dst.inbound.bb,1
dst.fixed.bb,fixed
dst.landline.by,375
dst.inbound.by,375
dst.fixed.by,fixed
dst.landline.be,32
dst.inbound.be,32
dst.fixed.be,fixed
dst.landline.bz,501
dst.inbound.bz,501
dst.fixed.bz,fixed
dst.landline.bj,229
dst.inbound.bj,229
dst.fixed.bj,fixed
dst.landline.bm,1441
dst.inbound.bm,1
dst.fixed.bm,fixed
dst.landline.bt,975
dst.fixed.bt,fixed
dst.inbound.bt,975
dst.fixed.bo,fixed
dst.landline.bo,591
dst.inbound.bo,591
dst.fixed.ba,fixed
dst.fixed.ba,fixed
dst.landline.bw,267
dst.inbound.bw,267
dst.fixed.bw,fixed
dst.landline.br,55
dst.inbound.br,55
dst.fixed.br,fixed
dst.landline.bn,673
dst.inbound.bn,673
dst.fixed.bn,fixed
dst.landline.bg,359
dst.inbound.bg,359
dst.fixed.bg,fixed
dst.fixed.bf,fixed
dst.landline.bi,257
dst.inbound.bi,257
dst.fixed.bi,fixed
dst.landline.kh,855
dst.fixed.kh,fixed
dst.inbound.kh,855
dst.fixed.cm,fixed
dst.landline.cm,237
dst.inbound.cm,237
dst.fixed.ca,fixed
dst.landline.ca,1902
dst.landline.ca,1506
dst.landline.ca,1709
dst.landline.ca,1416
dst.landline.ca,1236
dst.landline.ca,1778
dst.landline.ca,1604
dst.landline.ca,1204
dst.landline.ca,1867
dst.landline.ca,1514
dst.landline.ca,1613
dst.landline.ca,1647
dst.landline.ca,1705
dst.landline.ca,1807
dst.landline.ca,1819
dst.landline.ca,1867
dst.landline.ca,1867
dst.landline.ca,1867
dst.landline.ca,1902
dst.landline.ca,1905
dst.landline.ca,1244
dst.landline.ca,1587
dst.landline.ca,1780
dst.landline.ca,1819
dst.landline.ca,1519
dst.landline.ca,1226
dst.landline.ca,1905
dst.landline.ca,1289
dst.landline.ca,1514
dst.landline.ca,1438
dst.landline.ca,1613
dst.landline.ca,1343
dst.landline.ca,1581
dst.landline.ca,1418
dst.landline.ca,1306
dst.landline.ca,1705
dst.landline.ca,1249
dst.landline.ca,1600
dst.landline.ca,1450
dst.landline.ca,1579
dst.landline.ca,1807
dst.landline.ca,1647
dst.landline.ca,1250
dst.landline.ca,1780
dst.landline.ca,1902
dst.landline.ca,1418
dst.landline.ca,1450
dst.landline.ca,1519
dst.inbound.ca,1
dst.fixed.ca,fixed
dst.landline.cv,238
dst.inbound.cv,238
dst.fixed.cv,fixed
dst.landline.ky,1345
dst.inbound.ky,1
dst.fixed.ky,fixed
dst.landline.cf,236
dst.inbound.cf,236
dst.fixed.cf,fixed
dst.landline.td,235
dst.inbound.td,235
dst.fixed.td,fixed
dst.landline.cl,56
dst.inbound.cl,56
dst.fixed.cl,fixed
dst.landline.cn,86
dst.inbound.cn,86
dst.fixed.cn,fixed
dst.landline.co,57
dst.fixed.co,fixed
dst.inbound.co,57
dst.fixed.cg,fixed
dst.fixed.cd,fixed
dst.fixed.cd,fixed
dst.fixed.ck,fixed
dst.landline.cr,506
dst.inbound.cr,506
dst.fixed.cr,fixed
dst.fixed.ci,fixed
dst.landline.hr,385
dst.inbound.hr,385
dst.fixed.hr,fixed
dst.landline.cu,53
dst.inbound.cu,53
dst.fixed.cu,fixed
dst.landline.cz,420
dst.fixed.cz,fixed
dst.inbound.cz,420
dst.fixed.dk,fixed
dst.landline.dk,45
dst.inbound.dk,45
dst.fixed.dg,fixed
dst.fixed.dg,fixed
dst.landline.dj,253
dst.inbound.dj,253
dst.fixed.dj,fixed
dst.landline.dm,1767
dst.inbound.dm,1
dst.fixed.dm,fixed
dst.landline.do,1809
dst.inbound.do,1
dst.fixed.do,fixed
dst.landline.ec,593
dst.inbound.ec,593
dst.fixed.ec,fixed
dst.landline.eg,20
dst.inbound.eg,20
dst.fixed.eg,fixed
dst.landline.sv,503
dst.inbound.sv,503
dst.fixed.sv,fixed
dst.landline.gq,240
dst.fixed.gq,fixed
dst.inbound.gq,240
dst.fixed.ee,fixed
dst.landline.ee,372
dst.inbound.ee,372
dst.fixed.fk,fixed
dst.fixed.fk,fixed
dst.fixed.fo,fixed
dst.landline.fj,679
dst.inbound.fj,679
dst.fixed.fj,fixed
dst.landline.fi,358
dst.inbound.fi,358
dst.fixed.fi,fixed
dst.landline.fr,33
dst.inbound.fr,33
dst.fixed.fr,fixed
dst.fixed.gf,fixed
dst.landline.pf,689
dst.inbound.pf,689
dst.fixed.pf,fixed
dst.landline.ga,241
dst.fixed.ga,fixed
dst.inbound.ga,241
dst.fixed.gm,fixed
dst.landline.gm,220
dst.inbound.gm,220
dst.fixed.ge,fixed
dst.landline.ge,995
dst.inbound.ge,995
dst.fixed.ge,fixed
dst.landline.de,49
dst.inbound.de,49
dst.fixed.de,fixed
dst.landline.gh,233
dst.inbound.gh,233
dst.fixed.gh,fixed
dst.landline.gi,350
dst.inbound.gi,350
dst.fixed.gi,fixed
dst.landline.gr,30
dst.inbound.gr,30
dst.fixed.gr,fixed
dst.landline.gl,299
dst.inbound.gl,299
dst.fixed.gl,fixed
dst.landline.gd,1473
dst.inbound.gd,1
dst.fixed.gd,fixed
dst.fixed.gp,fixed
dst.fixed.gu,fixed
dst.landline.gu,1671
dst.inbound.gu,1
dst.fixed.gt,fixed
dst.landline.gt,502
dst.inbound.gt,502
dst.fixed.gt,fixed
dst.fixed.gg,fixed
dst.landline.gn,224
dst.inbound.gn,224
dst.fixed.gn,fixed
dst.landline.gw,245
dst.inbound.gw,245
dst.fixed.gw,fixed
dst.landline.gy,592
dst.inbound.gy,592
dst.fixed.gy,fixed
dst.landline.ht,509
dst.inbound.ht,509
dst.fixed.ht,fixed
dst.landline.hn,504
dst.inbound.hn,504
dst.fixed.hn,fixed
dst.landline.hk,852
dst.fixed.hk,fixed
dst.inbound.hk,852
dst.fixed.hu,fixed
dst.landline.hu,36
dst.inbound.hu,36
dst.fixed.is,fixed
dst.landline.is,354
dst.inbound.is,354
dst.fixed.is,fixed
dst.landline.in,91
dst.inbound.in,91
dst.fixed.in,fixed
dst.landline.id,62
dst.inbound.id,62
dst.fixed.id,fixed
dst.landline.ir,98
dst.inbound.ir,98
dst.fixed.ir,fixed
dst.landline.iq,964
dst.inbound.iq,964
dst.fixed.iq,fixed
dst.landline.ie,353
dst.inbound.ie,353
dst.fixed.ie,fixed
dst.fixed.im,fixed
dst.landline.il,972
dst.fixed.il,fixed
dst.inbound.il,972
dst.fixed.it,fixed
dst.landline.it,39
dst.inbound.it,39
dst.fixed.jm,fixed
dst.landline.jm,1876
dst.inbound.jm,1
dst.fixed.jm,fixed
dst.landline.jp,81
dst.inbound.jp,81
dst.fixed.jp,fixed
dst.fixed.je,fixed
dst.landline.jo,962
dst.inbound.jo,962
dst.fixed.jo,fixed
dst.landline.kz,7
dst.inbound.kz,7
dst.fixed.kz,fixed
dst.landline.ke,254
dst.inbound.ke,254
dst.fixed.ke,fixed
dst.fixed.xk,fixed
dst.landline.kw,965
dst.fixed.kw,fixed
dst.inbound.kw,965
dst.fixed.kg,fixed
dst.landline.kg,996
dst.inbound.kg,996
dst.fixed.la,fixed
dst.landline.la,856
dst.inbound.la,856
dst.fixed.la,fixed
dst.landline.lv,371
dst.inbound.lv,371
dst.fixed.lv,fixed
dst.landline.lb,961
dst.inbound.lb,961
dst.fixed.lb,fixed
dst.landline.ls,266
dst.inbound.ls,266
dst.fixed.ls,fixed
dst.fixed.lr,fixed
dst.landline.ly,218
dst.inbound.ly,218
dst.fixed.ly,fixed
dst.landline.li,423
dst.inbound.li,423
dst.fixed.li,fixed
dst.fixed.lt,fixed
dst.fixed.lu,fixed
dst.landline.lu,352
dst.inbound.lu,352
dst.fixed.mo,fixed
dst.landline.mo,853
dst.inbound.mo,853
dst.fixed.mo,fixed
dst.landline.mk,389
dst.inbound.mk,389
dst.fixed.mk,fixed
dst.landline.mg,261
dst.inbound.mg,261
dst.fixed.mg,fixed
dst.landline.mw,265
dst.inbound.mw,265
dst.fixed.mw,fixed
dst.landline.my,60
dst.inbound.my,60
dst.fixed.my,fixed
dst.landline.mv,960
dst.inbound.mv,960
dst.fixed.mv,fixed
dst.landline.ml,223
dst.inbound.ml,223
dst.fixed.ml,fixed
dst.landline.mt,356
dst.fixed.mt,fixed
dst.inbound.mt,356
dst.fixed.mq,fixed
dst.fixed.mr,fixed
dst.landline.mr,222
dst.inbound.mr,222
dst.fixed.mr,fixed
dst.landline.mu,230
dst.inbound.mu,230
dst.fixed.mu,fixed
dst.landline.yt,262
dst.inbound.yt,262
dst.fixed.yt,fixed
dst.landline.mx,52
dst.inbound.mx,52
dst.fixed.mx,fixed
dst.landline.md,373
dst.inbound.md,373
dst.fixed.md,fixed
dst.landline.mn,976
dst.inbound.mn,976
dst.fixed.mn,fixed
dst.landline.me,382
dst.inbound.me,382
dst.fixed.me,fixed
dst.landline.ms,1664
dst.fixed.ms,fixed
dst.inbound.ms,1
dst.fixed.ma,fixed
dst.landline.ma,212
dst.inbound.ma,212
dst.fixed.mz,fixed
dst.landline.mz,258
dst.inbound.mz,258
dst.fixed.mz,fixed
dst.landline.mm,95
dst.inbound.mm,95
dst.fixed.mm,fixed
dst.landline.na,264
dst.inbound.na,264
dst.fixed.na,fixed
dst.landline.nr,674
dst.inbound.nr,674
dst.fixed.nr,fixed
dst.landline.np,977
dst.inbound.np,977
dst.fixed.np,fixed
dst.landline.nl,31
dst.inbound.nl,31
dst.fixed.nl,fixed
dst.landline.an,599
dst.inbound.an,599
dst.fixed.an,fixed
dst.fixed.nc,fixed
dst.fixed.nz,fixed
dst.landline.nz,64
dst.inbound.nz,64
dst.fixed.ni,fixed
dst.landline.ni,505
dst.inbound.ni,505
dst.fixed.ni,fixed
dst.landline.ne,227
dst.inbound.ne,227
dst.fixed.ne,fixed
dst.landline.ng,234
dst.inbound.ng,234
dst.fixed.ng,fixed
dst.fixed.nf,fixed
dst.landline.no,47
dst.inbound.no,47
dst.fixed.no,fixed
dst.landline.om,968
dst.inbound.om,968
dst.fixed.om,fixed
dst.landline.pk,92
dst.inbound.pk,92
dst.fixed.pk,fixed
dst.landline.pw,680
dst.fixed.pw,fixed
dst.inbound.pw,680
dst.fixed.ps,fixed
dst.fixed.pa,fixed
dst.landline.pa,507
dst.inbound.pa,507
dst.fixed.pa,fixed
dst.landline.pg,675
dst.inbound.pg,675
dst.fixed.pg,fixed
dst.landline.py,595
dst.inbound.py,595
dst.fixed.py,fixed
dst.landline.pe,51
dst.inbound.pe,51
dst.fixed.pe,fixed
dst.landline.ph,63
dst.inbound.ph,63
dst.fixed.ph,fixed
dst.landline.pl,48
dst.inbound.pl,48
dst.fixed.pl,fixed
dst.landline.pt,351
dst.inbound.pt,351
dst.fixed.pt,fixed
dst.landline.pr,1
dst.fixed.pr,fixed
dst.inbound.pr,1
dst.fixed.qa,fixed
dst.landline.qa,974
dst.inbound.qa,974
dst.fixed.re,fixed
dst.fixed.re,fixed
dst.landline.ro,40
dst.inbound.ro,40
dst.fixed.ro,fixed
dst.landline.ru,7
dst.inbound.ru,7
dst.fixed.ru,fixed
dst.landline.rw,250
dst.inbound.rw,250
dst.fixed.rw,fixed
dst.landline.ws,685
dst.inbound.ws,685
dst.fixed.ws,fixed
dst.landline.sm,378
dst.inbound.sm,378
dst.fixed.sm,fixed
dst.fixed.st,fixed
dst.landline.sa,966
dst.fixed.sa,fixed
dst.inbound.sa,966
dst.fixed.sn,fixed
dst.landline.sn,221
dst.inbound.sn,221
dst.fixed.rs,fixed
dst.landline.rs,381
dst.inbound.rs,381
dst.fixed.rs,fixed
dst.landline.sc,248
dst.inbound.sc,248
dst.fixed.sc,fixed
dst.fixed.sl,fixed
dst.landline.sg,65
dst.inbound.sg,65
dst.fixed.sg,fixed
dst.landline.sk,421
dst.inbound.sk,421
dst.fixed.sk,fixed
dst.landline.si,386
dst.inbound.si,386
dst.fixed.si,fixed
dst.landline.sb,677
dst.inbound.sb,677
dst.fixed.sb,fixed
dst.fixed.so,fixed
dst.fixed.za,fixed
dst.landline.za,27
dst.inbound.za,27
dst.fixed.kr,fixed
dst.landline.kr,82
dst.inbound.kr,82
dst.fixed.kr,fixed
dst.fixed.ss,fixed
dst.landline.es,34
dst.inbound.es,34
dst.fixed.es,fixed
dst.fixed.lk,fixed
dst.landline.kn,1869
dst.inbound.kn,1
dst.fixed.kn,fixed
dst.landline.lc,1758
dst.inbound.lc,1
dst.fixed.lc,fixed
dst.landline.vc,1784
dst.inbound.vc,1
dst.fixed.vc,fixed
dst.fixed.sd,fixed
dst.fixed.sr,fixed
dst.landline.sr,597
dst.inbound.sr,597
dst.fixed.sz,fixed
dst.landline.sz,268
dst.inbound.sz,268
dst.fixed.sz,fixed
dst.landline.se,46
dst.inbound.se,46
dst.fixed.se,fixed
dst.landline.ch,41
dst.inbound.ch,41
dst.fixed.ch,fixed
dst.landline.sy,963
dst.inbound.sy,963
dst.fixed.sy,fixed
dst.landline.tw,886
dst.inbound.tw,886
dst.fixed.tw,fixed
dst.landline.tj,992
dst.inbound.tj,992
dst.fixed.tj,fixed
dst.landline.tz,255
dst.inbound.tz,255
dst.fixed.tz,fixed
dst.landline.th,66
dst.fixed.th,fixed
dst.inbound.th,66
dst.fixed.tl,fixed
dst.fixed.tg,fixed
dst.landline.tg,228
dst.inbound.tg,228
dst.fixed.tg,fixed
dst.landline.to,676
dst.inbound.to,676
dst.fixed.to,fixed
dst.landline.tt,1868
dst.inbound.tt,1
dst.fixed.tt,fixed
dst.landline.tn,216
dst.inbound.tn,216
dst.fixed.tn,fixed
dst.landline.tr,90
dst.inbound.tr,90
dst.fixed.tr,fixed
dst.landline.tm,993
dst.inbound.tm,993
dst.fixed.tm,fixed
dst.landline.ug,256
dst.fixed.ug,fixed
dst.inbound.ug,256
dst.fixed.ua,fixed
dst.landline.ua,380
dst.inbound.ua,380
dst.fixed.ae,fixed
dst.landline.ae,971
dst.inbound.ae,971
dst.fixed.ae,fixed
dst.landline.gb,44
dst.landline.gb,447
dst.inbound.gb,44
dst.fixed.gb,fixed
dst.landline.us,1201
dst.landline.us,1202
dst.landline.us,1203
dst.landline.us,1204
dst.landline.us,1205
dst.landline.us,1206
dst.landline.us,1207
dst.landline.us,1208
dst.landline.us,1209
dst.landline.us,1210
dst.landline.us,1212
dst.landline.us,1213
dst.landline.us,1214
dst.landline.us,1215
dst.landline.us,1216
dst.landline.us,1217
dst.landline.us,1218
dst.landline.us,1219
dst.landline.us,1225
dst.landline.us,1228
dst.landline.us,1229
dst.landline.us,1231
dst.landline.us,1234
dst.landline.us,1240
dst.landline.us,1242
dst.landline.us,1246
dst.landline.us,1248
dst.landline.us,1250
dst.landline.us,1252
dst.landline.us,1253
dst.landline.us,1254
dst.landline.us,1256
dst.landline.us,1262
dst.landline.us,1264
dst.landline.us,1267
dst.landline.us,1268
dst.landline.us,1270
dst.landline.us,1281
dst.landline.us,1284
dst.landline.us,1301
dst.landline.us,1302
dst.landline.us,1303
dst.landline.us,1304
dst.landline.us,1305
dst.landline.us,1306
dst.landline.us,1307
dst.landline.us,1308
dst.landline.us,1309
dst.landline.us,1310
dst.landline.us,1312
dst.landline.us,1313
dst.landline.us,1314
dst.landline.us,1315
dst.landline.us,1316
dst.landline.us,1317
dst.landline.us,1318
dst.landline.us,1319
dst.landline.us,1320
dst.landline.us,1321
dst.landline.us,1323
dst.landline.us,1330
dst.landline.us,1334
dst.landline.us,1336
dst.landline.us,1337
dst.landline.us,1340
dst.landline.us,1345
dst.landline.us,1347
dst.landline.us,1352
dst.landline.us,1360
dst.landline.us,1361
dst.landline.us,1385
dst.landline.us,1401
dst.landline.us,1402
dst.landline.us,1403
dst.landline.us,1404
dst.landline.us,1405
dst.landline.us,1406
dst.landline.us,1407
dst.landline.us,1408
dst.landline.us,1409
dst.landline.us,1410
dst.landline.us,1412
dst.landline.us,1413
dst.landline.us,1414
dst.landline.us,1415
dst.landline.us,1416
dst.landline.us,1417
dst.landline.us,1419
dst.landline.us,1423
dst.landline.us,1425
dst.landline.us,1435
dst.landline.us,1440
dst.landline.us,1441
dst.landline.us,1443
dst.landline.us,1456
dst.landline.us,1469
dst.landline.us,1473
dst.landline.us,1478
dst.landline.us,1480
dst.landline.us,1484
dst.landline.us,1500
dst.landline.us,1501
dst.landline.us,1502
dst.landline.us,1503
dst.landline.us,1504
dst.landline.us,1505
dst.landline.us,1506
dst.landline.us,1507
dst.landline.us,1508
dst.landline.us,1509
dst.landline.us,1510
dst.landline.us,1512
dst.landline.us,1513
dst.landline.us,1515
dst.landline.us,1516
dst.landline.us,1517
dst.landline.us,1518
dst.landline.us,1520
dst.landline.us,1530
dst.landline.us,1540
dst.landline.us,1541
dst.landline.us,1559
dst.landline.us,1561
dst.landline.us,1562
dst.landline.us,1570
dst.landline.us,1571
dst.landline.us,1573
dst.landline.us,1580
dst.landline.us,1600
dst.landline.us,1601
dst.landline.us,1602
dst.landline.us,1603
dst.landline.us,1604
dst.landline.us,1605
dst.landline.us,1606
dst.landline.us,1607
dst.landline.us,1608
dst.landline.us,1609
dst.landline.us,1610
dst.landline.us,1612
dst.landline.us,1614
dst.landline.us,1615
dst.landline.us,1616
dst.landline.us,1617
dst.landline.us,1618
dst.landline.us,1619
dst.landline.us,1623
dst.landline.us,1626
dst.landline.us,1630
dst.landline.us,1631
dst.landline.us,1636
dst.landline.us,1641
dst.landline.us,1646
dst.landline.us,1649
dst.landline.us,1650
dst.landline.us,1651
dst.landline.us,1660
dst.landline.us,1661
dst.landline.us,1662
dst.landline.us,1664
dst.landline.us,1670
dst.landline.us,1671
dst.landline.us,1678
dst.landline.us,1682
dst.landline.us,1700
dst.landline.us,1701
dst.landline.us,1702
dst.landline.us,1703
dst.landline.us,1704
dst.landline.us,1706
dst.landline.us,1707
dst.landline.us,1708
dst.landline.us,1710
dst.landline.us,1712
dst.landline.us,1713
dst.landline.us,1714
dst.landline.us,1715
dst.landline.us,1716
dst.landline.us,1717
dst.landline.us,1718
dst.landline.us,1719
dst.landline.us,1720
dst.landline.us,1724
dst.landline.us,1727
dst.landline.us,1732
dst.landline.us,1734
dst.landline.us,1740
dst.landline.us,1757
dst.landline.us,1758
dst.landline.us,1760
dst.landline.us,1763
dst.landline.us,1765
dst.landline.us,1767
dst.landline.us,1770
dst.landline.us,1773
dst.landline.us,1775
dst.landline.us,1781
dst.landline.us,1784
dst.landline.us,1785
dst.landline.us,1786
dst.landline.us,1787
dst.landline.us,1800
dst.landline.us,1801
dst.landline.us,1802
dst.landline.us,1803
dst.landline.us,1804
dst.landline.us,1805
dst.landline.us,1806
dst.landline.us,1808
dst.landline.us,1809
dst.landline.us,1810
dst.landline.us,1812
dst.landline.us,1813
dst.landline.us,1814
dst.landline.us,1815
dst.landline.us,1816
dst.landline.us,1817
dst.landline.us,1818
dst.landline.us,1828
dst.landline.us,1830
dst.landline.us,1831
dst.landline.us,1832
dst.landline.us,1843
dst.landline.us,1845
dst.landline.us,1847
dst.landline.us,1850
dst.landline.us,1856
dst.landline.us,1858
dst.landline.us,1859
dst.landline.us,1860
dst.landline.us,1863
dst.landline.us,1864
dst.landline.us,1865
dst.landline.us,1866
dst.landline.us,1868
dst.landline.us,1869
dst.landline.us,1870
dst.landline.us,1876
dst.landline.us,1877
dst.landline.us,1880
dst.landline.us,1881
dst.landline.us,1882
dst.landline.us,1888
dst.landline.us,1900
dst.landline.us,1901
dst.landline.us,1903
dst.landline.us,1904
dst.landline.us,1906
dst.landline.us,1907
dst.landline.us,1908
dst.landline.us,1909
dst.landline.us,1910
dst.landline.us,1912
dst.landline.us,1913
dst.landline.us,1914
dst.landline.us,1915
dst.landline.us,1916
dst.landline.us,1917
dst.landline.us,1918
dst.landline.us,1919
dst.landline.us,1920
dst.landline.us,1925
dst.landline.us,1931
dst.landline.us,1936
dst.landline.us,1937
dst.landline.us,1940
dst.landline.us,1941
dst.landline.us,1949
dst.landline.us,1952
dst.landline.us,1954
dst.landline.us,1956
dst.landline.us,1970
dst.landline.us,1971
dst.landline.us,1972
dst.landline.us,1973
dst.landline.us,1978
dst.landline.us,1979
dst.landline.us,1
dst.inbound.us,1
dst.fixed.us,fixed
dst.landline.uy,598
dst.inbound.uy,598
dst.fixed.uy,fixed
dst.landline.uz,998
dst.inbound.uz,998
dst.fixed.uz,fixed
dst.landline.vu,678
dst.inbound.vu,678
dst.fixed.vu,fixed
dst.landline.ve,58
dst.inbound.ve,58
dst.fixed.ve,fixed
dst.landline.vn,84
dst.fixed.vn,fixed
dst.inbound.vn,84
dst.fixed.vg,fixed
dst.fixed.vi,fixed
dst.fixed.vi,fixed
dst.landline.ye,967
dst.inbound.ye,967
dst.fixed.ye,fixed
dst.landline.zm,260
dst.inbound.zm,260
dst.fixed.zm,fixed
dst.landline.zw,263
dst.inbound.zw,263
dst.fixed.zw,fixed
dst.landline.au,612
dst.landline.au,613
dst.landline.au,618
dst.landline.au,614
dst.landline.au,617
dst.landline.au,61
dst.landline.au,6189164
dst.landline.au,6189162
dst.inbound.au,61
dst.tollfreeinbound.au,611800
dst.tollfreeinbound.au,611300
dst.tollfreeinbound.au,6113
dst.tollfreeoutbound.au,611800
dst.tollfreeoutbound.au,611300
dst.tollfreeoutbound.au,6113
dst.fixed.au,fixed
dst.landline.al,355
dst.inbound.al,355
dst.fixed.al,fixed
dst.landline.dz,213
dst.inbound.dz,213
dst.fixed.dz,fixed
dst.fixed.ad,fixed
dst.landline.ao,244
dst.fixed.ao,fixed
dst.inbound.ao,244
dst.fixed.ai,fixed
dst.landline.ai,1264
dst.inbound.ai,1
dst.fixed.ag,fixed
dst.landline.ag,1268
dst.inbound.ag,1
dst.fixed.ag,fixed
dst.landline.ar,54
dst.inbound.ar,54
dst.fixed.ar,fixed
dst.landline.am,374
dst.inbound.am,374
dst.fixed.am,fixed
dst.landline.aw,297
dst.inbound.aw,297
dst.fixed.aw,fixed
dst.landline.af,93
dst.inbound.af,93
dst.fixed.af,fixed
dst.landline.at,43
dst.inbound.at,43
dst.fixed.at,fixed
dst.landline.az,994
dst.inbound.az,994
dst.fixed.az,fixed
dst.landline.bs,1242
dst.fixed.bs,fixed
dst.inbound.bs,1
dst.fixed.bh,fixed
dst.landline.bh,973
dst.inbound.bh,973
dst.fixed.bd,fixed
dst.landline.bd,880
dst.inbound.bd,880
dst.fixed.bd,fixed
dst.landline.bb,1246
dst.inbound.bb,1
dst.fixed.bb,fixed
dst.landline.by,375
dst.inbound.by,375
dst.fixed.by,fixed
dst.landline.be,32
dst.inbound.be,32
dst.fixed.be,fixed
dst.landline.bz,501
dst.inbound.bz,501
dst.fixed.bz,fixed
dst.landline.bj,229
dst.inbound.bj,229
dst.fixed.bj,fixed
dst.landline.bm,1441
dst.inbound.bm,1
dst.fixed.bm,fixed
dst.landline.bt,975
dst.fixed.bt,fixed
dst.inbound.bt,975
dst.fixed.bo,fixed
dst.landline.bo,591
dst.inbound.bo,591
dst.fixed.ba,fixed
dst.fixed.ba,fixed
dst.landline.bw,267
dst.inbound.bw,267
dst.fixed.bw,fixed
dst.landline.br,55
dst.inbound.br,55
dst.fixed.br,fixed
dst.landline.bn,673
dst.inbound.bn,673
dst.fixed.bn,fixed
dst.landline.bg,359
dst.inbound.bg,359
dst.fixed.bg,fixed
dst.fixed.bf,fixed
dst.landline.bi,257
dst.inbound.bi,257
dst.fixed.bi,fixed
dst.landline.kh,855
dst.fixed.kh,fixed
dst.inbound.kh,855
dst.fixed.cm,fixed
dst.landline.cm,237
dst.inbound.cm,237
dst.fixed.ca,fixed
dst.landline.ca,1902
dst.landline.ca,1506
dst.landline.ca,1709
dst.landline.ca,1416
dst.landline.ca,1236
dst.landline.ca,1778
dst.landline.ca,1604
dst.landline.ca,1204
dst.landline.ca,1867
dst.landline.ca,1514
dst.landline.ca,1613
dst.landline.ca,1647
dst.landline.ca,1705
dst.landline.ca,1807
dst.landline.ca,1819
dst.landline.ca,1867
dst.landline.ca,1867
dst.landline.ca,1867
dst.landline.ca,1902
dst.landline.ca,1905
dst.landline.ca,1244
dst.landline.ca,1587
dst.landline.ca,1780
dst.landline.ca,1819
dst.landline.ca,1519
dst.landline.ca,1226
dst.landline.ca,1905
dst.landline.ca,1289
dst.landline.ca,1514
dst.landline.ca,1438
dst.landline.ca,1613
dst.landline.ca,1343
dst.landline.ca,1581
dst.landline.ca,1418
dst.landline.ca,1306
dst.landline.ca,1705
dst.landline.ca,1249
dst.landline.ca,1600
dst.landline.ca,1450
dst.landline.ca,1579
dst.landline.ca,1807
dst.landline.ca,1647
dst.landline.ca,1250
dst.landline.ca,1780
dst.landline.ca,1902
dst.landline.ca,1418
dst.landline.ca,1450
dst.landline.ca,1519
dst.inbound.ca,1
dst.fixed.ca,fixed
dst.landline.cv,238
dst.inbound.cv,238
dst.fixed.cv,fixed
dst.landline.ky,1345
dst.inbound.ky,1
dst.fixed.ky,fixed
dst.landline.cf,236
dst.inbound.cf,236
dst.fixed.cf,fixed
dst.landline.td,235
dst.inbound.td,235
dst.fixed.td,fixed
dst.landline.cl,56
dst.inbound.cl,56
dst.fixed.cl,fixed
dst.landline.cn,86
dst.inbound.cn,86
dst.fixed.cn,fixed
dst.landline.co,57
dst.fixed.co,fixed
dst.inbound.co,57
dst.fixed.cg,fixed
dst.fixed.cd,fixed
dst.fixed.cd,fixed
dst.fixed.ck,fixed
dst.landline.cr,506
dst.inbound.cr,506
dst.fixed.cr,fixed
dst.fixed.ci,fixed
dst.landline.hr,385
dst.inbound.hr,385
dst.fixed.hr,fixed
dst.landline.cu,53
dst.inbound.cu,53
dst.fixed.cu,fixed
dst.landline.cz,420
dst.fixed.cz,fixed
dst.inbound.cz,420
dst.fixed.dk,fixed
dst.landline.dk,45
dst.inbound.dk,45
dst.fixed.dg,fixed
dst.fixed.dg,fixed
dst.landline.dj,253
dst.inbound.dj,253
dst.fixed.dj,fixed
dst.landline.dm,1767
dst.inbound.dm,1
dst.fixed.dm,fixed
dst.landline.do,1809
dst.inbound.do,1
dst.fixed.do,fixed
dst.landline.ec,593
dst.inbound.ec,593
dst.fixed.ec,fixed
dst.landline.eg,20
dst.inbound.eg,20
dst.fixed.eg,fixed
dst.landline.sv,503
dst.inbound.sv,503
dst.fixed.sv,fixed
dst.landline.gq,240
dst.fixed.gq,fixed
dst.inbound.gq,240
dst.fixed.ee,fixed
dst.landline.ee,372
dst.inbound.ee,372
dst.fixed.fk,fixed
dst.fixed.fk,fixed
dst.fixed.fo,fixed
dst.landline.fj,679
dst.inbound.fj,679
dst.fixed.fj,fixed
dst.landline.fi,358
dst.inbound.fi,358
dst.fixed.fi,fixed
dst.landline.fr,33
dst.inbound.fr,33
dst.fixed.fr,fixed
dst.fixed.gf,fixed
dst.landline.pf,689
dst.inbound.pf,689
dst.fixed.pf,fixed
dst.landline.ga,241
dst.fixed.ga,fixed
dst.inbound.ga,241
dst.fixed.gm,fixed
dst.landline.gm,220
dst.inbound.gm,220
dst.fixed.ge,fixed
dst.landline.ge,995
dst.inbound.ge,995
dst.fixed.ge,fixed
dst.landline.de,49
dst.inbound.de,49
dst.fixed.de,fixed
dst.landline.gh,233
dst.inbound.gh,233
dst.fixed.gh,fixed
dst.landline.gi,350
dst.inbound.gi,350
dst.fixed.gi,fixed
dst.landline.gr,30
dst.inbound.gr,30
dst.fixed.gr,fixed
dst.landline.gl,299
dst.inbound.gl,299
dst.fixed.gl,fixed
dst.landline.gd,1473
dst.inbound.gd,1
dst.fixed.gd,fixed
dst.fixed.gp,fixed
dst.fixed.gu,fixed
dst.landline.gu,1671
dst.inbound.gu,1
dst.fixed.gt,fixed
dst.landline.gt,502
dst.inbound.gt,502
dst.fixed.gt,fixed
dst.fixed.gg,fixed
dst.landline.gn,224
dst.inbound.gn,224
dst.fixed.gn,fixed
dst.landline.gw,245
dst.inbound.gw,245
dst.fixed.gw,fixed
dst.landline.gy,592
dst.inbound.gy,592
dst.fixed.gy,fixed
dst.landline.ht,509
dst.inbound.ht,509
dst.fixed.ht,fixed
dst.landline.hn,504
dst.inbound.hn,504
dst.fixed.hn,fixed
dst.landline.hk,852
dst.fixed.hk,fixed
dst.inbound.hk,852
dst.fixed.hu,fixed
dst.landline.hu,36
dst.inbound.hu,36
dst.fixed.is,fixed
dst.landline.is,354
dst.inbound.is,354
dst.fixed.is,fixed
dst.landline.in,91
dst.inbound.in,91
dst.fixed.in,fixed
dst.landline.id,62
dst.inbound.id,62
dst.fixed.id,fixed
dst.landline.ir,98
dst.inbound.ir,98
dst.fixed.ir,fixed
dst.landline.iq,964
dst.inbound.iq,964
dst.fixed.iq,fixed
dst.landline.ie,353
dst.inbound.ie,353
dst.fixed.ie,fixed
dst.fixed.im,fixed
dst.landline.il,972
dst.fixed.il,fixed
dst.inbound.il,972
dst.fixed.it,fixed
dst.landline.it,39
dst.inbound.it,39
dst.fixed.jm,fixed
dst.landline.jm,1876
dst.inbound.jm,1
dst.fixed.jm,fixed
dst.landline.jp,81
dst.inbound.jp,81
dst.fixed.jp,fixed
dst.fixed.je,fixed
dst.landline.jo,962
dst.inbound.jo,962
dst.fixed.jo,fixed
dst.landline.kz,7
dst.inbound.kz,7
dst.fixed.kz,fixed
dst.landline.ke,254
dst.inbound.ke,254
dst.fixed.ke,fixed
dst.fixed.xk,fixed
dst.landline.kw,965
dst.fixed.kw,fixed
dst.inbound.kw,965
dst.fixed.kg,fixed
dst.landline.kg,996
dst.inbound.kg,996
dst.fixed.la,fixed
dst.landline.la,856
dst.inbound.la,856
dst.fixed.la,fixed
dst.landline.lv,371
dst.inbound.lv,371
dst.fixed.lv,fixed
dst.landline.lb,961
dst.inbound.lb,961
dst.fixed.lb,fixed
dst.landline.ls,266
dst.inbound.ls,266
dst.fixed.ls,fixed
dst.fixed.lr,fixed
dst.landline.ly,218
dst.inbound.ly,218
dst.fixed.ly,fixed
dst.landline.li,423
dst.inbound.li,423
dst.fixed.li,fixed
dst.fixed.lt,fixed
dst.fixed.lu,fixed
dst.landline.lu,352
dst.inbound.lu,352
dst.fixed.mo,fixed
dst.landline.mo,853
dst.inbound.mo,853
dst.fixed.mo,fixed
dst.landline.mk,389
dst.inbound.mk,389
dst.fixed.mk,fixed
dst.landline.mg,261
dst.inbound.mg,261
dst.fixed.mg,fixed
dst.landline.mw,265
dst.inbound.mw,265
dst.fixed.mw,fixed
dst.landline.my,60
dst.inbound.my,60
dst.fixed.my,fixed
dst.landline.mv,960
dst.inbound.mv,960
dst.fixed.mv,fixed
dst.landline.ml,223
dst.inbound.ml,223
dst.fixed.ml,fixed
dst.landline.mt,356
dst.fixed.mt,fixed
dst.inbound.mt,356
dst.fixed.mq,fixed
dst.fixed.mr,fixed
dst.landline.mr,222
dst.inbound.mr,222
dst.fixed.mr,fixed
dst.landline.mu,230
dst.inbound.mu,230
dst.fixed.mu,fixed
dst.landline.yt,262
dst.inbound.yt,262
dst.fixed.yt,fixed
dst.landline.mx,52
dst.inbound.mx,52
dst.fixed.mx,fixed
dst.landline.md,373
dst.inbound.md,373
dst.fixed.md,fixed
dst.landline.mn,976
dst.inbound.mn,976
dst.fixed.mn,fixed
dst.landline.me,382
dst.inbound.me,382
dst.fixed.me,fixed
dst.landline.ms,1664
dst.fixed.ms,fixed
dst.inbound.ms,1
dst.fixed.ma,fixed
dst.landline.ma,212
dst.inbound.ma,212
dst.fixed.mz,fixed
dst.landline.mz,258
dst.inbound.mz,258
dst.fixed.mz,fixed
dst.landline.mm,95
dst.inbound.mm,95
dst.fixed.mm,fixed
dst.landline.na,264
dst.inbound.na,264
dst.fixed.na,fixed
dst.landline.nr,674
dst.inbound.nr,674
dst.fixed.nr,fixed
dst.landline.np,977
dst.inbound.np,977
dst.fixed.np,fixed
dst.landline.nl,31
dst.inbound.nl,31
dst.fixed.nl,fixed
dst.landline.an,599
dst.inbound.an,599
dst.fixed.an,fixed
dst.fixed.nc,fixed
dst.fixed.nz,fixed
dst.landline.nz,64
dst.inbound.nz,64
dst.fixed.ni,fixed
dst.landline.ni,505
dst.inbound.ni,505
dst.fixed.ni,fixed
dst.landline.ne,227
dst.inbound.ne,227
dst.fixed.ne,fixed
dst.landline.ng,234
dst.inbound.ng,234
dst.fixed.ng,fixed
dst.fixed.nf,fixed
dst.landline.no,47
dst.inbound.no,47
dst.fixed.no,fixed
dst.landline.om,968
dst.inbound.om,968
dst.fixed.om,fixed
dst.landline.pk,92
dst.inbound.pk,92
dst.fixed.pk,fixed
dst.landline.pw,680
dst.fixed.pw,fixed
dst.inbound.pw,680
dst.fixed.ps,fixed
dst.fixed.pa,fixed
dst.landline.pa,507
dst.inbound.pa,507
dst.fixed.pa,fixed
dst.landline.pg,675
dst.inbound.pg,675
dst.fixed.pg,fixed
dst.landline.py,595
dst.inbound.py,595
dst.fixed.py,fixed
dst.landline.pe,51
dst.inbound.pe,51
dst.fixed.pe,fixed
dst.landline.ph,63
dst.inbound.ph,63
dst.fixed.ph,fixed
dst.landline.pl,48
dst.inbound.pl,48
dst.fixed.pl,fixed
dst.landline.pt,351
dst.inbound.pt,351
dst.fixed.pt,fixed
dst.landline.pr,1
dst.fixed.pr,fixed
dst.inbound.pr,1
dst.fixed.qa,fixed
dst.landline.qa,974
dst.inbound.qa,974
dst.fixed.re,fixed
dst.fixed.re,fixed
dst.landline.ro,40
dst.inbound.ro,40
dst.fixed.ro,fixed
dst.landline.ru,7
dst.inbound.ru,7
dst.fixed.ru,fixed
dst.landline.rw,250
dst.inbound.rw,250
dst.fixed.rw,fixed
dst.landline.ws,685
dst.inbound.ws,685
dst.fixed.ws,fixed
dst.landline.sm,378
dst.inbound.sm,378
dst.fixed.sm,fixed
dst.fixed.st,fixed
dst.landline.sa,966
dst.fixed.sa,fixed
dst.inbound.sa,966
dst.fixed.sn,fixed
dst.landline.sn,221
dst.inbound.sn,221
dst.fixed.rs,fixed
dst.landline.rs,381
dst.inbound.rs,381
dst.fixed.rs,fixed
dst.landline.sc,248
dst.inbound.sc,248
dst.fixed.sc,fixed
dst.fixed.sl,fixed
dst.landline.sg,65
dst.inbound.sg,65
dst.fixed.sg,fixed
dst.landline.sk,421
dst.inbound.sk,421
dst.fixed.sk,fixed
dst.landline.si,386
dst.inbound.si,386
dst.fixed.si,fixed
dst.landline.sb,677
dst.inbound.sb,677
dst.fixed.sb,fixed
dst.fixed.so,fixed
dst.fixed.za,fixed
dst.landline.za,27
dst.inbound.za,27
dst.fixed.kr,fixed
dst.landline.kr,82
dst.inbound.kr,82
dst.fixed.kr,fixed
dst.fixed.ss,fixed
dst.landline.es,34
dst.inbound.es,34
dst.fixed.es,fixed
dst.fixed.lk,fixed
dst.landline.kn,1869
dst.inbound.kn,1
dst.fixed.kn,fixed
dst.landline.lc,1758
dst.inbound.lc,1
dst.fixed.lc,fixed
dst.landline.vc,1784
dst.inbound.vc,1
dst.fixed.vc,fixed
dst.fixed.sd,fixed
dst.fixed.sr,fixed
dst.landline.sr,597
dst.inbound.sr,597
dst.fixed.sz,fixed
dst.landline.sz,268
dst.inbound.sz,268
dst.fixed.sz,fixed
dst.landline.se,46
dst.inbound.se,46
dst.fixed.se,fixed
dst.landline.ch,41
dst.inbound.ch,41
dst.fixed.ch,fixed
dst.landline.sy,963
dst.inbound.sy,963
dst.fixed.sy,fixed
dst.landline.tw,886
dst.inbound.tw,886
dst.fixed.tw,fixed
dst.landline.tj,992
dst.inbound.tj,992
dst.fixed.tj,fixed
dst.landline.tz,255
dst.inbound.tz,255
dst.fixed.tz,fixed
dst.landline.th,66
dst.fixed.th,fixed
dst.inbound.th,66
dst.fixed.tl,fixed
dst.fixed.tg,fixed
dst.landline.tg,228
dst.inbound.tg,228
dst.fixed.tg,fixed
dst.landline.to,676
dst.inbound.to,676
dst.fixed.to,fixed
dst.landline.tt,1868
dst.inbound.tt,1
dst.fixed.tt,fixed
dst.landline.tn,216
dst.inbound.tn,216
dst.fixed.tn,fixed
dst.landline.tr,90
dst.inbound.tr,90
dst.fixed.tr,fixed
dst.landline.tm,993
dst.inbound.tm,993
dst.fixed.tm,fixed
dst.landline.ug,256
dst.fixed.ug,fixed
dst.inbound.ug,256
dst.fixed.ua,fixed
dst.landline.ua,380
dst.inbound.ua,380
dst.fixed.ae,fixed
dst.landline.ae,971
dst.inbound.ae,971
dst.fixed.ae,fixed
dst.landline.gb,44
dst.landline.gb,447
dst.inbound.gb,44
dst.fixed.gb,fixed
dst.landline.us,1201
dst.landline.us,1202
dst.landline.us,1203
dst.landline.us,1204
dst.landline.us,1205
dst.landline.us,1206
dst.landline.us,1207
dst.landline.us,1208
dst.landline.us,1209
dst.landline.us,1210
dst.landline.us,1212
dst.landline.us,1213
dst.landline.us,1214
dst.landline.us,1215
dst.landline.us,1216
dst.landline.us,1217
dst.landline.us,1218
dst.landline.us,1219
dst.landline.us,1225
dst.landline.us,1228
dst.landline.us,1229
dst.landline.us,1231
dst.landline.us,1234
dst.landline.us,1240
dst.landline.us,1242
dst.landline.us,1246
dst.landline.us,1248
dst.landline.us,1250
dst.landline.us,1252
dst.landline.us,1253
dst.landline.us,1254
dst.landline.us,1256
dst.landline.us,1262
dst.landline.us,1264
dst.landline.us,1267
dst.landline.us,1268
dst.landline.us,1270
dst.landline.us,1281
dst.landline.us,1284
dst.landline.us,1301
dst.landline.us,1302
dst.landline.us,1303
dst.landline.us,1304
dst.landline.us,1305
dst.landline.us,1306
dst.landline.us,1307
dst.landline.us,1308
dst.landline.us,1309
dst.landline.us,1310
dst.landline.us,1312
dst.landline.us,1313
dst.landline.us,1314
dst.landline.us,1315
dst.landline.us,1316
dst.landline.us,1317
dst.landline.us,1318
dst.landline.us,1319
dst.landline.us,1320
dst.landline.us,1321
dst.landline.us,1323
dst.landline.us,1330
dst.landline.us,1334
dst.landline.us,1336
dst.landline.us,1337
dst.landline.us,1340
dst.landline.us,1345
dst.landline.us,1347
dst.landline.us,1352
dst.landline.us,1360
dst.landline.us,1361
dst.landline.us,1385
dst.landline.us,1401
dst.landline.us,1402
dst.landline.us,1403
dst.landline.us,1404
dst.landline.us,1405
dst.landline.us,1406
dst.landline.us,1407
dst.landline.us,1408
dst.landline.us,1409
dst.landline.us,1410
dst.landline.us,1412
dst.landline.us,1413
dst.landline.us,1414
dst.landline.us,1415
dst.landline.us,1416
dst.landline.us,1417
dst.landline.us,1419
dst.landline.us,1423
dst.landline.us,1425
dst.landline.us,1435
dst.landline.us,1440
dst.landline.us,1441
dst.landline.us,1443
dst.landline.us,1456
dst.landline.us,1469
dst.landline.us,1473
dst.landline.us,1478
dst.landline.us,1480
dst.landline.us,1484
dst.landline.us,1500
dst.landline.us,1501
dst.landline.us,1502
dst.landline.us,1503
dst.landline.us,1504
dst.landline.us,1505
dst.landline.us,1506
dst.landline.us,1507
dst.landline.us,1508
dst.landline.us,1509
dst.landline.us,1510
dst.landline.us,1512
dst.landline.us,1513
dst.landline.us,1515
dst.landline.us,1516
dst.landline.us,1517
dst.landline.us,1518
dst.landline.us,1520
dst.landline.us,1530
dst.landline.us,1540
dst.landline.us,1541
dst.landline.us,1559
dst.landline.us,1561
dst.landline.us,1562
dst.landline.us,1570
dst.landline.us,1571
dst.landline.us,1573
dst.landline.us,1580
dst.landline.us,1600
dst.landline.us,1601
dst.landline.us,1602
dst.landline.us,1603
dst.landline.us,1604
dst.landline.us,1605
dst.landline.us,1606
dst.landline.us,1607
dst.landline.us,1608
dst.landline.us,1609
dst.landline.us,1610
dst.landline.us,1612
dst.landline.us,1614
dst.landline.us,1615
dst.landline.us,1616
dst.landline.us,1617
dst.landline.us,1618
dst.landline.us,1619
dst.landline.us,1623
dst.landline.us,1626
dst.landline.us,1630
dst.landline.us,1631
dst.landline.us,1636
dst.landline.us,1641
dst.landline.us,1646
dst.landline.us,1649
dst.landline.us,1650
dst.landline.us,1651
dst.landline.us,1660
dst.landline.us,1661
dst.landline.us,1662
dst.landline.us,1664
dst.landline.us,1670
dst.landline.us,1671
dst.landline.us,1678
dst.landline.us,1682
dst.landline.us,1700
dst.landline.us,1701
dst.landline.us,1702
dst.landline.us,1703
dst.landline.us,1704
dst.landline.us,1706
dst.landline.us,1707
dst.landline.us,1708
dst.landline.us,1710
dst.landline.us,1712
dst.landline.us,1713
dst.landline.us,1714
dst.landline.us,1715
dst.landline.us,1716
dst.landline.us,1717
dst.landline.us,1718
dst.landline.us,1719
dst.landline.us,1720
dst.landline.us,1724
dst.landline.us,1727
dst.landline.us,1732
dst.landline.us,1734
dst.landline.us,1740
dst.landline.us,1757
dst.landline.us,1758
dst.landline.us,1760
dst.landline.us,1763
dst.landline.us,1765
dst.landline.us,1767
dst.landline.us,1770
dst.landline.us,1773
dst.landline.us,1775
dst.landline.us,1781
dst.landline.us,1784
dst.landline.us,1785
dst.landline.us,1786
dst.landline.us,1787
dst.landline.us,1800
dst.landline.us,1801
dst.landline.us,1802
dst.landline.us,1803
dst.landline.us,1804
dst.landline.us,1805
dst.landline.us,1806
dst.landline.us,1808
dst.landline.us,1809
dst.landline.us,1810
dst.landline.us,1812
dst.landline.us,1813
dst.landline.us,1814
dst.landline.us,1815
dst.landline.us,1816
dst.landline.us,1817
dst.landline.us,1818
dst.landline.us,1828
dst.landline.us,1830
dst.landline.us,1831
dst.landline.us,1832
dst.landline.us,1843
dst.landline.us,1845
dst.landline.us,1847
dst.landline.us,1850
dst.landline.us,1856
dst.landline.us,1858
dst.landline.us,1859
dst.landline.us,1860
dst.landline.us,1863
dst.landline.us,1864
dst.landline.us,1865
dst.landline.us,1866
dst.landline.us,1868
dst.landline.us,1869
dst.landline.us,1870
dst.landline.us,1876
dst.landline.us,1877
dst.landline.us,1880
dst.landline.us,1881
dst.landline.us,1882
dst.landline.us,1888
dst.landline.us,1900
dst.landline.us,1901
dst.landline.us,1903
dst.landline.us,1904
dst.landline.us,1906
dst.landline.us,1907
dst.landline.us,1908
dst.landline.us,1909
dst.landline.us,1910
dst.landline.us,1912
dst.landline.us,1913
dst.landline.us,1914
dst.landline.us,1915
dst.landline.us,1916
dst.landline.us,1917
dst.landline.us,1918
dst.landline.us,1919
dst.landline.us,1920
dst.landline.us,1925
dst.landline.us,1931
dst.landline.us,1936
dst.landline.us,1937
dst.landline.us,1940
dst.landline.us,1941
dst.landline.us,1949
dst.landline.us,1952
dst.landline.us,1954
dst.landline.us,1956
dst.landline.us,1970
dst.landline.us,1971
dst.landline.us,1972
dst.landline.us,1973
dst.landline.us,1978
dst.landline.us,1979
dst.landline.us,1
dst.inbound.us,1
dst.fixed.us,fixed
dst.landline.uy,598
dst.inbound.uy,598
dst.fixed.uy,fixed
dst.landline.uz,998
dst.inbound.uz,998
dst.fixed.uz,fixed
dst.landline.vu,678
dst.inbound.vu,678
dst.fixed.vu,fixed
dst.landline.ve,58
dst.inbound.ve,58
dst.fixed.ve,fixed
dst.landline.vn,84
dst.fixed.vn,fixed
dst.inbound.vn,84
dst.fixed.vg,fixed
dst.fixed.vi,fixed
dst.fixed.vi,fixed
dst.landline.ye,967
dst.inbound.ye,967
dst.fixed.ye,fixed
dst.landline.zm,260
dst.inbound.zm,260
dst.fixed.zm,fixed
dst.landline.zw,263
dst.inbound.zw,263
dst.fixed.zw,fixed
